{
    "general.guildOnly": "Funkcja dostępna tylko na serwerze.",
    "general.error": "Wystąpił błąd. Jeżeli potrzebujesz pomocy, proszę zgłoś to na serwerze wsparcia (`support` aby uzyskać zaproszenie).\n```{{error}}```",
    "general.cooldown": "Nie tak szybko! Nie tak szybko - ta komenda jest teraz na wstrzymaniu.",
    "finder.failUser": "Nie jestem w stanie znaleźć pasującego użytkownika.",
    "finder.failRole": "Nie jestem w stanie znaleźć pasującej roli.",
    "finder.failChannel": "Nie jestem w stanie znaleźć pasującego kanału.",
    "finder.failGuild": "Nie jestem w stanie znaleźć pasującego serwera.",
    "finder.headerRole": "Wybierz rolę, którą chcesz użyć",
    "finder.headerUser": "Wybierz użytkownika, którego chcesz użyć",
    "finder.headerGuild": "[Wyszukiwacz gildii]",
    "finder.headerChannel": "Wybierz kanał, który chcesz użyć",
    "finder.headerUserGuild": "[Wyszukiwacz użytkowników gildii]",
    "invite.text": "Jasna sprawa :ok_hand:\n\nJeżeli chcesz abym dołączyła do Twojego serwera proszę wybierz jeden z poniższych linków:\n\nModeracja (zalecany): {{invite}}\nMinimalny (nie zalecany): {{invitemin}}",
    "locale.userUpdate": "Twoje ustawienia językowe zostały zmienione na `{{locale}}`.",
    "locale.guildUpdate": "Ustawienia języka serwera zostały zmienione na `{{locale}}`.",
    "locale.headerAvail": "[Dostępne języki]",
    "locale.fail": "Nie udało się zmienić języka.",
    "modlog.genFail": "Błąd funkcji Modlog.",
    "modlog.addFail": "Nie udało się dodać nowej pozycji w Modlog'u.",
    "modlog.created": "Stworzono nową pozycję w Modlog'u.",
    "modlog.updated": "Zaktualizowano pozycję w Modlog'u.",
    "modlog.updateFail": "Nie udało się zaktualizować szczegółów pozycji w log'u.",
    "modlog.hackAdd": "Wygląda na to, że `{{input}}` jest identyfikatorem użytkownika. Kontynuować [y/n]?",
    "perms.denied": "Brakuje Tobie uprawnień `{{node}}`.",
    "perms.cmdDenied": "Dostęp odrzucony. Musisz być właścicielem serwera lub administratorem, aby móc edytować uprawnienia.",
    "perms.resetall.owner": "Ta komenda może być użyta tylko przez właściciela serwera.",
    "perms.resetall.reset": "Zresetowano uprawnienia.",
    "perms.resetall.error": "Nie udało się zresetować wszystkich uprawnień.",
    "perms.failedUpdate": "Nie udało się zaktualizować węzła uprawnień. Proszę skontaktować się ze wsparciem jeżeli błąd nie będzie ustępował.",
    "perms.noRole": "Brak określonej roli.",
    "perms.roleUserConflict": "Rola i użytkownik nie może być określony w tym samym czasie.",
    "perms.invalidOpt": "Tylko `--channel [kanał], --user [użytkownik], --role [rola]` są właściwymi opcjami, brak argumentów wybierze obecne wartości.",
    "prefix.text": "Prefiks na tym serwerze to `{{prefix}}`.",
    "prune.missingPerms": "Przepraszam, nie posiadam uprawnień Discord `Zarządzanie wiadomościami`.",
    "prune.fetchFail": "Nie udało się znaleźć pasujących wiadomości. Proszę spróbuj ponownie.",
    "prune.filterHelp": "Filtr wymaga danych wejściowych do wyszukania.",
    "prune.userIDConf": "Wygląda na to, że `{{input}}` jest identyfikatorem użytkownika. Kontynuować [y/n]?",
    "remind.error": "Potrzebuję czegoś co mogłabym Tobie przypomnieć.",
    "remind.invalidTime": "Niepoprawny format czasu. Proszę określić czas dłuższy niż 30 sekund.",
    "remind.confirm": "Ok, nowe przypomnienie za `{{time}}` [y/n]?",
    "remind.okay": "Ok, z pewnością Ci o tym przypomnę!",
    "remind.failed": "Przepraszam, nie byłam w stanie zapisać Twojego przypomnienia :(",
    "remind.pm": "Poprosiłeś mnie o przypomnienie tego: ```{{text}}```",
    "words.user": "Użytkownik",
    "words.role": "Rola",
    "words.roles": "Role",
    "words.channel": "Kanał",
    "words.channels": "Kanały",
    "words.guild": "Serwer",
    "words.guilds": "Serwery",
    "words.version": "Wersja",
    "words.website": "Strona",
    "words.author": "Autor",
    "words.library": "Biblioteka",
    "words.donate": "Donacja",
    "words.member": "Członek",
    "words.members": "Członkowie",
    "words.id": "ID",
    "words.region": "Region",
    "words.owner": "Właściciel",
    "words.created": "Stworzono",
    "words.joined": "Dołączono",
    "words.icon": "Ikona",
    "words.avatar": "Avatar",
    "words.cancel": "Anuluj",
    "words.nickname": "Nick",
    "words.playing": "Odtwarzanie",
    "words.status": "Status",
    "words.error": "Błąd",
    "words.yes": "Tak",
    "words.no": "Nie",
    "words.position": "Pozycja",
    "words.color": "Kolor",
    "words.hoist": "Wyróżniona",
    "words.managed": "Zarządzona",
    "words.mentionable": "Wzmiankowalna",
    "words.permissions": "Uprawnienia",
    "words.users": "Użytkownicy",
    "words.topic": "Temat",
    "words.twitter": "Twitter",
    "words.mention": "Wzmianka",
    "words.type": "Typ",
    "words.value": "Wartość",
    "words.default": "Domyślnie",
    "words.description": "Opis",
    "help.ban": "Użycie: `ban <użytkownik> [--reason <powód>] [--days <liczba dni>] [--soft] [--hackban]`",
    "help.kick": "Użycie: `kick <użytkownik> [--reason <powód>]`",
    "help.roleinfo": "Użycie: `roleinfo <rola>`",
    "help.locale": "Użycie: `locale [set <język> [--guild]]`",
    "ban.missingUser": "Brakuje wymaganego parametru użytkownika.",
    "ban.softHackban": "Nie można dać soft i hackban'a w tym samym czasie.",
    "ban.invalidDays": "Określono błędną liczbę dni.",
    "ban.hackbanUserID": "Hackban wymaga Id użytkownika.",
    "ban.failed": "Przepraszam, nie byłam w stanie zbanować użytkownika. Prawdopodobnie nie posiadam wystarczających uprawnień.",
    "ban.softFailed": "Błąd softban'a; nie udało się odblokować użytkownika. Proszę odblokować go ręcznie.",
    "botlist.fetchFailed": "Nie udało się pobrać listy botów z {{provider}}.",
    "botlist.headerPage": "[Lista botów {{page}}/{{total}}]",
    "support.text": "Jeżeli potrzebujesz pomocy, masz jakieś sugestie lub znalazłeś błędy związane z Ayaną, proszę dołącz do serwera wsparcia. {{support}}",
    "kick.failed": "Przepraszam, nie byłam w stanie wyrzucić użytkownika. Prawdopodobnie nie posiadam wystarczających uprawnień.",
    "linkcheck.headerRedirects": "[Przekierowanie]",
    "ping.pong": "Pong! {{ms}}",
    "settings.failedUpdate": "Nie udało się zaktualizować ustawień.",
    "settings.invalidInput": "Oczekiwana wartość `{{type}}`. Otrzymano `{{input}}`.",
    "settings.set": "Ustawiono **{{setting}}** jako `{{value}}`.",
    "settings.notset": "nie ustawione",
    "settings.groupsHelp": "Oto lista dostępnych grup ustawień.\nW celu uzyskania informacji o ustawieniach użytkownika wpisz `settings user`.\nW celu uzyskania więcej informacji wpisz `settings [nazwaGrupy]`.",
    "settings.unknownGroup": "Nieznana nazwa grupy ustawień [**{{input}}**]().",
    "settings.groupHelp": "Ustawienia w grupie [**{{group}}**]().\nW celu uzyskania więcej informacji wpisz `settings {{group}} [nazwaUstawień]`.",
    "settings.unknownSetting": "Nieznane ustawienia [**{{setting}}**]() w grupie [**{{group}}**]().",
    "settings.active": "Włącz/Wyłącz",
    "settings.prefix.guild": "Prefiks tego serwera.",
    "settings.greeting.text": "Tekst powitalny.",
    "settings.greeting.channel": "Kanał do wyświetlania powitań.",
    "settings.greeting.dm": "Wysyłać na pw zamiast do kanału?",
    "settings.farewell.text": "Tekst pożegnalny.",
    "settings.farewell.channel": "Kanał do wyświetlania pożegnań.",
    "settings.farewell.dm": "Wysyłać na pw zamiast do kanału?",
    "settings.modlog.channel": "Kanał do wyświetlania log'ów.",
    "avatar.resolveFailed": "Nie udało się pobrać awatar'u.",
    "translation.nativeName": "Polski",
    "translation.englishName": "Polish",
    "channelinfo.pinned": "Przypięte wiadomości",
    "channelinfo.type": "Rodzaj kanału",
    "channelinfo.text": "Tekstowy",
    "channelinfo.voice": "Głosowy",
    "channelinfo.bitrate": "Bitrate głosu",
    "channelinfo.connected": "Połączonych użytkowników",
    "channelinfo.overwrite": "Nadpisane uprawnienia",
    "music2.join": ":white_check_mark: Połączono z :speaker: `{{voice}}` i powiązano z :newspaper: `{{text}}`.",
    "music2.rebound": ":white_check_mark: Wznawianie muzyki po rozłączeniu z serwerem.",
    "music2.userNoChannel": "Obecnie nie znajdujesz się w żadnym kanale głosowym. Proszę dołącz do jednego.",
    "music2.leave": ":no_entry: Opuszczono i rozwiązano połączenie. Jeżeli lubisz korzystać z Ayany, proszę rozważ możliwość wsparcia w celu utrzymania nas przy życiu <https://ayana.io/donate>!",
    "music2.nowplaying": ":notes: Odtwarzanie: `{{title}}` na życzenie `{{requester}}`.",
    "music2.enqueued": "Dodano: `{{title}}` na pozycję **{{position}}**. Wpisz `music play` aby zacząć odtwarzanie.",
    "music2.enqueuedPlaylist": "Dodano: `{{items}}` piosenek z `{{title}}`. Wpisz `music play` aby zacząć odtwarzanie.",
    "music2.alreadyBound": "Już połączono i powiązano z kanałami.",
    "music2.notBound": "Nie powiązano z żadnym kanałem.",
    "music2.queuePurged": "Wyczyszczono kolejkę.",
    "music2.queueItemDeleted": "Usunięto `{{item}}` z kolejki.",
    "music2.headerSearch": "[Wyniki Wyszukiwania]",
    "music2.pickOption": "Wybierz opcję aby dodać do kolejki.",
    "music2.emptyQueue": "Nic po za nami kurczakami…",
    "music2.headerQueue": "[Kolejka]",
    "music2.queueShuffled": ":twisted_rightwards_arrows: Wymieszano kolejkę.",
    "music2.skipped": ":fast_forward: Pominięto `{{item}}`.",
    "music2.loopOne": ":repeat_one: Powtarzanie obecnej piosenki.",
    "music2.loopAll": ":repeat: Powtarzanie kolejki.",
    "music2.loopOff": "Powtarzanie wyłączone.",
    "music2.autoPaused": ":pause_button: Zatrzymano z powodu braku słuchaczy.",
    "music2.autoResumed": ":arrow_forward: Wznowiono odtwarzanie.",
    "music2.autoLeave": ":no_entry_sign: Opuszczono kanał z powodu braku aktywności. Jeżeli lubisz korzystać z Ayany, proszę rozważ możliwość wsparcia w celu utrzymania nas przy życiu <https://ayana.io/donate>!",
    "music2.fullHelp": "```css\n[Pomoc Muzyka]\n\nmusic q | queue - Wyświetla kolejkę\nmusic  q | queue [Tytuł (yt) | url] - Dodaje piosenkę lub playlistę\n   music q [Tytuł (yt) | url] --next - Dodaje piosenkę lub playlistę na początek kolejki\n\nmusic qp | queueplay [Tytuł (yt) | url] - Dodaje piosenkę do kolejki i zaczyna jej odtwarzanie.\n\nmusic sq | showqueue - Wyświetla kolejkę\nmusic pg | purge - Czyści kolejkę\nmusic d | del | delete <numerPiosenki|wyszukaj> - Usuwa piosenkę o podanym numerze lub piosenki, których nazwy pokrywają się z wyszukanym terminem\n\nmusic p | play - Zaczyna odtwarzanie\nmusic s | skip - Pomija obecną piosenkę\nmusic sf | shuffle - Miesza kolejkę\nmusic r | repeat <all|one|off> - Włącza tryb powtarzania\n\nmusic pv | providers - Wyświetla dostępnych dostawców.\n\nmusic j | join - Dołącza do Twojego kanału głosowego *musisz być w kanale głosowym*\nmusic l | leave - Opuszcza obecny kanał głosowy\n\n<> = wymagane argumenty, [] = opcjonalne, | = lub, Nie używaj <> [] ani | w swoich komendach.\nW razie pytań, proszę dołącz do serwera wsparcia. (=support aby wyświetlić link z zaproszeniem)```",
    "music2.tooLong": "W związku ze zmianami w muzyce v3, piosenki dłuższe niż 3h **tymczasowo** zostały wyłączone.",
    "modlog.requireReason": "Aktywny modlog: należy dodać powód używając `--reason`.",
    "words.variables": "Zmienne",
    "settings.variable.mention": "Wspomina użytkownika.",
    "settings.variable.username": "Nazwa użytkownika.",
    "settings.variable.discriminator": "Dyskryminator użytkownika.",
    "settings.variable.userid": "Id użytkownika.",
    "shardinfo.fail": "Nie udało się pobrać informacji o shard'dzie.",
    "shardinfo.currentShard": "Obecny Shard",
    "words.providers": "Dostawcy",
    "setgame.fail": "Nie udało się ustawić gry. {{error}}",
    "setgame.streambool": "Musisz podać adres URL stream'u.",
    "setgame.done": "Ustawiono status gry!",
    "music.providers.youtube": "Słuchaj filmów z https://www.youtube.com i nie prywatnych playlist.",
    "music.providers.soundcloud": "Słuchaj piosenek i playlist z https://www.soundcloud.com.",
    "music.providers.listenmoe": "Słuchaj radia z https://listen.moe.",
    "music.providers.clyp": "Słuchaj piosenek z http://clyp.it.",
    "music.providers.twitch": "Słuchaj stremów z https://twitch.tv.",
    "f.paid": "**{{username}}** składa wyrazy współczucia.",
    "f.paidfor": "**{{username}}** składa wyrazy współczucia dla **{{type}}**.",
    "f.paidfooter": "{{today}} dzisiaj, {{all}} razem",
    "f.paidstats": "Dzisiaj okazano szacunek **{{today}}** razy. Łącznie **{{all}}**.",
    "settings.automod.channel": "Kanał do zapisywania logów Automod'a.",
    "settings.automod.log": "Włącz/wyłącz logi Automod'a.",
    "settings.automod.links": "Włącz/wyłącz filtrowanie linków.",
    "settings.automod.linksbl": "Czarna lista linków.",
    "settings.list.help": "Użycie: `settings {{group}} {{setting}} [add|del] [item]`",
    "settings.list.delconfirm": "Następujące elementy zostaną usunięte. Czy wszystko się zgadza? [y/n]:\n```{{items}}```",
    "settings.list.delnomatch": "Nie znaleziono elementów do usunięcia.",
    "words.container": "Kontener",
    "words.gatewayVersion": "Brama sieciowa Ayany",
    "music2.showQueueMore": "oraz {{size}} więcej",
    "music2.playfailed": ":no_entry_sign: Wystąpił błąd niepozwalający odtworzyć `{{title}}`. Pomijam...",
    "reminder.parseFailed": "Nie znaleziono czasu po jakim miałam Tobie to przypomnieć.",
    "music2.delete.fuzzyNoMatches": "Żaden tytuł nie pasuje do podanego terminu.",
    "music2.delete.fuzzyExcessMatches": "Znaleziono zbyt wiele wyników. Proszę doprecyzować lub usunąć w inny sposób.",
    "music2.delete.confirm": "Następujące wyniki zostaną usunięte. Czy się zgadza? [y/n]:\n```{{items}}```",
    "music2.delete.items": "Usunięto `{{items}}` elementów z kolejki.",
    "music2.delete.queueEmpty": "Pusta kolejka, nic do usunięcia.",
    "music2.delete.invalidIndex": "Określiłeś niewłaściwy indeks. Proszę, spróbuj ponownie.",
    "reminder.invalidDuration": "Proszę, określ czas dłuższy niż 2 minuty.",
    "reminder.gatewayFailure": "Nie udało się połączyć z bramą sieciową. Proszę spróbuj ponownie później.",
    "reminder.list.none": "Obecnie nie masz ustawionych żadnych przypomnień.",
    "reminder.list.invalidPage": "Nieprawidłowa strona.",
    "reminder.delete.confirm": "Następujące pozycje zostaną usunięte. Czy się zgadza? [y/n]:\n```{{items}}```",
    "reminder.created": "Okej, na pewno Ci o tym przypomnę!",
    "reminder.delete.nomatches": "Żadne przypomnienia nie pasują do Twojego zapytania.",
    "reminder.delete.done": "Przypomnienia usunięte.",
    "reminder.fullhelp": "```\nreminder add <coś do przypomnienia> - Dodaje nowe przypomnienie\nreminder del <szukaj> - Usuwa przypomnienia przez wyszukiwanie\nreminder list - Wyświetla Twoją listę przypomnień\n\nPrzykłady:\n reminder add sprawdź piekarnik in 1 hour\n reminder add zrobić pranie in 20 min```",
    "general.gatewayFailure": "Nie udało się skontaktować z bramą sieciową. Proszę spróbować później.",
    "general.pagination": "Strona {{page}}/{{pages}}",
    "general.pagination.invalidPage": "Nieprawidłowa strona.",
    "words.donators": "Darczyńcy",
    "music2.queue.maxsize": "Osiągnąłeś limit 1000 pozycji w kolejce.",
    "music2.provider.unknown": "Nieznany dostawca. Proszę wpisz `music pv` aby wyświetlić listę obsługiwanych dostawców.",
    "donators.none": "Nie udało się znaleźć żadnego darczyńcy.",
    "perms.validOpts": "Proszę określić prawidłowy poziom uprawnień: `--guild, --channel [kanał], --role <rola>, --user [użytkownik]` lub `--channel [szukaj] [--role <szukaj> | --user [szukaj]]`",
    "perms.invalidNode": "Nieprawidłowy węzeł uprawnień. Wpisz `perms nodes` aby wyświetlić listę węzłów.",
    "perms.roleRequired": "Opcja role wymaga określenia roli.",
    "perms.showGuild": "Uprawnienia na poziomie serwera",
    "perms.showChannel": "Uprawnienia na poziomie kanału `{{name}}`",
    "perms.showChannelUser": "Uprawnienia na poziomie kanału `{{cname}}` dla użytkownika `{{uname}}`",
    "perms.showChannelRole": "Uprawnienia na poziomie kanału `{{cname}}`  dla roli `{{rname}}`",
    "perms.showRole": "Uprawnienia na poziomie roli `{{name}}`",
    "perms.showUser": "Uprawnienia na poziomie użytkownika `{{name}}`",
    "perms.allowGuild": "Zezwolono `{{node}}` dla całego serwera",
    "perms.denyGuild": "Zablokowano `{{node}}` dla całego serwera",
    "perms.defaultGuild": "Przywrócono wartość domyślną `{{node}}` dla całego serwera",
    "perms.allowChannel": "Zezwolono `{{node}}` dla kanału `{{name}}`",
    "perms.denyChannel": "Zablokowano `{{node}}` dla kanału `{{name}}`",
    "perms.defaultChannel": "Przywrócono wartość domyślną `{{node}}` dla kanału `{{name}}`",
    "perms.allowChannelUser": "Zezwolono `{{node}}` w kanale `{{cname}}` dla użytkownika `{{uname}}`",
    "perms.denyChannelUser": "Zablokowano `{{node}}` w kanale `{{cname}}` dla użytkownika `{{uname}}`",
    "perms.defaultChannelUser": "Przywrócono wartość domyślną `{{node}}` w kanale `{{cname}}` dla użytkownika `{{uname}}`",
    "perms.allowChannelRole": "Zezwolono `{{node}}` w kanale `{{cname}}` dla roli `{{rname}}`",
    "perms.denyChannelRole": "Zablokowano `{{node}}` w kanale `{{cname}}` dla roli `{{rname}}`",
    "perms.defaultChannelRole": "Przywrócono wartość domyślną `{{node}}` w kanale `{{cname}}` dla roli `{{rname}}`",
    "perms.allowRole": "Zezwolono `{{node}}` dla roli `{{name}}`",
    "perms.denyRole": "Zablokowano `{{node}}` dla roli `{{name}}`",
    "perms.defaultRole": "Przywrócono wartość domyślną `{{node}}` dla roli `{{name}}`",
    "perms.allowUser": "Zezwolono `{{node}}` dla użytkownika `{{name}}`",
    "perms.denyUser": "Zablokowano `{{node}}` dla użytkownika `{{name}}`",
    "perms.defaultUser": "Przywrócono wartość domyślną `{{node}}` dla użytkownika `{{name}}`",
    "perms.fullHelp": "```css\nperms <allow|default|deny> węzełUprawnień [--guild]|[--user [szukaj]|[--role <szukaj>]|[--channel [szukaj] --role <rola>]\n perms allow guild.ban --role admin\n perms deny fun.all --guild\n\nperms show [--guild]|[--user [szukaj]|[--role <szukaj>]|[--channel [szukaj] --role <rola>]\n perms show --guild\n perms show --channel general\n perms show --channel gen --user HcgRandon\n\n<> = wymagane, [] = opcjonalne, | = lub, Proszę nie używać <> [] | w swoich komendach```\nBardziej szczegółową instrukcję można znaleźć pod adresem <https://ayana.io/permissions>",
    "words.directlink": "Bezpośredni Link",
    "help.rolemembers": "Użycie: `rolemembers <rola> [strona]` lub `rolemembers <rola> [--page <strona>]`",
    "rolemembers.headerPage": "Użytkownicy z rolą {{role}} strona {{page}}/{{total}}",
    "invite.patreon": "Ayana Patreon jest specjalnym dodatkiem dla patronów Ayany!\nJeżeli chcesz dołożyć się do rachunków Ayany oraz uzyskać w zamian specjalne nagrody, proszę rozważ możliwości dotacji :heart:\n\n{{patreon}}",
    "invite.error": "Przepraszam, nie posiadam zaproszenia dla `{{instance}}`\nPrawidłowe wersje to `production, patreon, beta`",
    "flipcoin.heads": "Orzeł!",
    "flipcoin.tails": "Reszka!",
    "prune.invalidAmount": "Niepoprawna ilość.",
    "prune.userHelp": "Opcja user wymaga podania jego nazwy.",
    "prune.tooManyOptions": "Użyłeś co najmniej dwóch opcji, które są niepoprawne `--all, --user, --bots`",
    "prune.deleteQuestion": "Wszystkie pasujące wiadomości zostaną BEZPOWROTNIE usunięte. Czy chcesz kontynuować? (y/n)",
    "help.prune": "Użycie: `prune <ilość> [--all|--user [szukaj]|--bots] [--filter [słowa]|--embeds|--attachments|--pinned]`",
    "settings.autodel.prune": "Usunąć wygenerowane wyjście po 10 sekundach?",
    "general.unableToDM": "Nie byłam w stanie wysłać Ci prywatnej wiadomości. Może to być spowodowane wyłączeniem opcji `Allow direct messages from server members` w Twoich ustawieniach prywatności Discord. Proszę, włącz tę opcję, aby otrzymać prywatną wiadomość.",
    "general.forbidden": "Próbowałam wysłać odpowiedź na twoją komendę. Jednakże brakuje mi uprawnień. Proszę, niech ktoś z administracji doda mi uprawnienia Discord `Wysyłanie wiadomości`.\n\nSerwer: `{{guild}}`\nKanał: `{{channel}}`\nKomenda: `{{cmd}}`\n\nJeżeli nie chcesz otrzymywać wiadomości tego typu, proszę wpisz na czacie serwera `settings user dmerrors false`.",
    "prune.totalMsgsDeleted": "Łącznie",
    "prune.oldMsgsDelted": "Stare wiadomości",
    "prune.oldMsgsNotDeleted": "Nie usunięte stare wiadomości",
    "prune.deletedByUser": "Usunięte wiadomości użytkowników",
    "prune.alreadyPruning": "Ktoś już uruchomił komendę prune na tym kanale! Proszę, poczekaj póki się skończy.",
    "role.missingPerms": "Przepraszam, brakuje mi uprawnień Discord `Zarządzanie rolami`.",
    "role.noRoleSpecified": "Nie określiłeś roli, która miałaby być nadana lub odebrana.",
    "role.tooManyOptions": "Użyłeś co najmniej dwóch następujących opcji, które są nieprawidłowe `--all, --user <użytkownik>, --users, --bots`.",
    "role.specifyUser": "Musisz określić użytkownika podczas używania `--user <użytkownik>`.",
    "role.cannotUseInroleNotinrole": "Nie możesz łączyć `--inrole`, `--notinrole` i `--noroles`.",
    "role.specifyAdditionalRole": "Musisz określić dodatkową rolę podczas używania `--inrole` lub `--notinrole`.",
    "role.noOptionsSpecified": "Nie określiłeś żadnych opcji. Sprawdź pomoc dla tej komend, aby uzyskać więcej informacji.",
    "role.mainRoleHeader": "Wybierz rolę, która ma zostać nadana lub odebrana (Twoje wyszukiwanie: `{{search}}`)",
    "role.secondaryRoleHeader": "Wybierz rolę określoną w `--inrole` lub `--notinrole` (Twoje wyszukiwanie: `{{search}}`)",
    "role.pleaseWait": "Proszę czekać, przetwarzam twoje żądanie. Wpisz `{{prefix}}role cancel` aby anulować proces. (Przetworzeni użytkownicy: {{usersProcessed}})",
    "role.maximumReached": "Twoje żądanie przekroczyło maksimum 100 zmian ról.",
    "role.alreadyProcessing": "Aktualnie przetwarzam żądanie roli na tym serwerze.",
    "role.doneProcessing": "Zrobione! Zmodyfikowano role {{amount}} użytkowników.",
    "role.userHeader": "Proszę wybierz użytkownika, którego wspomniano w `{{search}}`",
    "role.skippingUser": "Pomijanie użytkownika `{{search}}`",
    "role.statusMessageDeleted": "Wiadomość statusu została usunięta. Zadanie zostało przerwane.",
    "words.contributors": "Współtwórcy",
    "words.arguments": "Argumenty",
    "words.delete": "Usuń",
    "words.uptime": "Czas działania",
    "help.pruneFull": "```css\n[Pomoc Prune]\n\nprune <ilość> - Usuwa wiadomości\n\nOpcje:\n    [--bots] - Usuwa wiadomości botów\n    [--user <szukaj>] - Usuwa wiadomości określonego użytkownika\n\n    [--filter <filtr>] - Usuwa wiadomości z określoną zawartością\n\n    [--attachments | -a] - Usuwa wiadomości zawierające załączniki (można używać z --embeds)\n    [--embeds | -e] - Usuwa wiadomości zawierające osadzone obiekty (można używać z --attachments)\n    [--pinned | -p] - Usuwa przypięte wiadomości (domyślnie nie są one kasowane)\n    [--invites | -I] - Usuwa tylko wiadomości zawierające zaproszenia na serwer Discorda\n\nFlagi:\n    [-s] - Pomija wyświetlenie wyniku skasowanych wiadomości\n\nPrzykłady:\n   prune 10\n   prune 10 -aes\n   prune 10 -s --filter hello\n\n<> = wymagane argumenty, [] = opcjonalne, | = lub, Nie używaj <> [] ani | w swoich komendach.\nW razie pytań, proszę dołącz do serwera wsparcia. (=support aby wyświetlić link z zaproszeniem)```",
    "prune.results": "Wynik czyszczenia",
    "settings.userHelp": "Oto Twoje ustawienia użytkownika.\nWięcej informacji `settings user [ustawienia]`",
    "info.moreInfo": "*Twórca Ayany, aby wyświetlić więcej informacji o wszystkich shardach użyj {{prefix}}shardinfo",
    "question.timeout": "Pytanie wygasło.",
    "question.cancelled": "Pytanie odrzucone.",
    "help.avatar.short": "Wyświetl awatar użytkownika",
    "help.bigtext.short": "Wygeneruj text używając regional_indicatator_",
    "help.botlist.short": "Wyświetl listę botów z carbon",
    "help.channelinfo.short": "Wyświetl informacje o kanale",
    "help.clean.short": "Skasuję moje wiadomości z poprzednich 100",
    "help.donators.short": "Lista ludzi, którzy pomagają istnieć Ayanie",
    "help.f.short": "F aby okazać szacunek",
    "help.flipcoin.short": "Rzuć monetą",
    "help.help.short": "Wyświetl tę wiadomość",
    "help.info.short": "Wyświetl informacje o bocie",
    "help.invite.short": "Zaproś mnie do Swojego serwera",
    "help.music.short": "Odtwarzacz muzyki",
    "help.neko.short": "Wyświetla losowy obrazek z random.cat",
    "help.perms.short": "Interfejs kontroli uprawnień",
    "help.ping.short": "Ping Pong",
    "help.prune.short": "Usuwanie wiadomości",
    "help.role.short": "Dodaj, zabierz i modyfikuj role",
    "help.roleinfo.short": "Wyświetl informacje o roli",
    "help.rolemembers.short": "Wyświetl listę użytkowników z daną rolą",
    "help.say.short": "Powiem to co napiszesz",
    "help.sayd.short": "To samo co say, ale dodatkowo skasuję Twoją wiadomość",
    "help.serverinfo.short": "Wyświetla informacje o serwerze",
    "help.settings.short": "Interfejs kontroli ustawień",
    "help.support.short": "Wyświetl link do serwera wsparcia",
    "help.userinfo.short": "Wyświetl informacje o użytkowniku",
    "role.higherThanUser": "Rola, którą próbowałeś modyfikować jest wyżej lub na równi z Twoja najwyższą rolą. Z tego powodu nie masz uprawnień, aby jej zmienić.",
    "help.bigtextd.short": "To samo co bigtext, ale dodatkowo kasuję Twoją wiadomość",
    "help.inu.short": "Wyświetla losowe obrazki z random.dog",
    "help.lenny.short": "( ͡° ͜ʖ ͡°)",
    "help.lennyd.short": "To samo co lennny, ale dodatkowo kasuję Twoją wiadomość",
    "help.prefix.short": "Sprawdź prefiks bota",
    "help.shrug.short": "¯\\_(ツ)_/¯",
    "help.shrugd.short": "To samo co shrug, ale dodatkowo kasuję Twoją wiadomość",
    "prune.oldMsgsDeleted": "Skasowane stare wiadomości",
    "prune.autodelInfo": "Autokasowanie jest włączone. Ta wiadomość zostanie usunięta za 10 sekund. Wpisz 'c' aby anulować.",
    "role.invalidHexCode": "Nie użyłeś właściwego kodu szesnastkowego. Przykłady poprawnych kodów: #F4C, #F77800.",
    "role.modified": "Rola `{{role}}` została zmodyfikowana.",
    "general.targetHigherRole": "{{target}} posiada wyższą rolę niż Ty. Nie możesz modyfikować tego użytkownika.",
    "help.bad.short": "Wysyła zdjęcie, które karze oznaczonego użytkownika",
    "help.ban.short": "Banuje użytkowników",
    "help.lewd.short": "To zboczone!",
    "help.pout.short": "Wysyła dąsające się obrazki",
    "help.smug.short": "Wysyła obrazki zadowolonych z siebie postaci",
    "help.sumfuk.short": "u want sum fuk?",
    "help.waa.short": "Obrazki płaczących postaci, idealne dla chwili, kiedy jesteś smutny",
    "locale.percent": "[{{num}}%]",
    "locale.usageShort": "Użycie: `locale set [język] [--guild]` lub `locale list`",
    "locale.invalidLocale": "`{{input}}` nie jest poprawnym językiem. Proszę wpisz `locale list` aby wyświetlić listę dostępnych języków.\n Jeżeli chcesz pomóc w tłumaczeniu Ayany to odwiedź ten link{{url}}",
    "locale.current": "```css\nObecne ustawienia\n  Serwer: {{guild}}\n  Użytkownik: {{user}}```\n{{help}}\nJeżeli chcesz pomóc tłumaczyć Ayanę proszę odwiedź ten link {{url}}",
    "settings.autorole.role": "Rola, która powinna być przypisana z autorole",
    "settings.failedUpdateAutorole": "Ta rola nie może być użyta jako autorole, ponieważ jest wyżej niż Twoja najwyższa rola.",
    "help.kick.short": "Wyrzuca użytkownika",
    "help.linkcheck.short": "Używa www.gelinkinfo.com aby sprawdzić dokąd przekierowuje podany link",
    "help.locale.short": "Interfejs ustawień języka",
    "finder.skippingUser": "Pomijam użytkownika `{{search}}`",
    "finder.skippingRole": "Pomijam rolę `{{search}}`",
    "help.role.full": "```css\n[Pomoc Role]\n\nrole give <rola[, rola...]> - dodaje rolę\nrole take <rola[, rola...]> - zabiera rolę\nrole modify <rola> - modyfikuje rolę\n\nAliasy:\n    giverole, takerole, modifyrole\n\nOpcje dla giverole i takerole:\n    [--bots] - zmieni rolę tylko botom\n    [--users] - zmieni rolę tylko użytkownikom\n    [--user <użytkownik[, użytkownik...]>] - zmieni role tylko określonym użytkownikom\n\n    [--inrole <rola>] - zmieni rolę tylko użytkownikom, którzy posiadają określoną rolę\n    [--notinrole <rola>] -  zmieni rolę tylko użytkownikom, którzy nie posiadają określonej roli\n    [--noroles] - zmieni rolę tylko użytkownikom bez żadnych ról\n\nOpcje dla modifyrole:\n    [--name <nazwa>] - zmienia nazwę roli\n    [--color <kolor>] -zmienia kolor roli\n    [--move-after <rola>] - ustawia pozycję roli na jedną niżej niż wskazana\n\nPrzykłady:\n    role give Admin, Mod --user TheAkio\n    giverole Bot --inrole Bot\n    takerole Muted --user HcgRandon, TheAkio\n    role modify Bad --color #FF0000\n    modifyrole Admin --color blue\n\nUwaga:\n    Ta komenda nie pozwala nadawać, zabierać lub modyfikować role, które są wyżej niż Twoja najwyższa rola!\n\n<> = wymagane, [] = opcjonalnie, | = lub, nie używaj <> [] lub | w swoich komendach\nW razie pytań proszę dołącz do serwera wsparcia. (=support aby wyświetlić link)```",
    "prune.autodelCancelled": "Automatycznie kasowanie zostało porzucone.",
    "role.ayanaLowerThanModified": "Ayana posiada niższą lub tą samą rolę, którą próbujesz zmodyfikować",
    "role.notProcessing": "Brak uruchomionego żądania z rolą.",
    "role.cancelled": "Anulowano żądanie przetworzenia ról.",
    "general.notFound": "Nie znaleziono",
    "help.sar.full": "```css\n[Pomoc Self Assignable Roles (SAR)]\n\nsar | sar help - Wyświetla tę wiadomość\nsar create <grupa> - Tworzy grupę SAR\nsar delete <grupa> - Usuwa grupę SAR\nsar rename <grupa> <nowa nazwa> - Zmienia nazwę grupy\nsar groups - Wyświetla wszystkie grupy\n\nModyfikacje grupy:\n    sar <grupa> active <bool> - Włącza lub wyłącza grupę\n    sar <grupa> reqrole <rola> - Ustawia rolę jaką użytkownik musi posiadać aby móc użyć daną grupę\n    sar <grupa> max <numer> - Ustala maksymalną liczbę ról jaką użytkownik może sobie nadać z danej grupy\n    sar <grupa> roles add <rola> - Dodaje rolę do grupy\n    sar <grupa> roles remove <rola> - Usuwa rolę z grupy\n    sar <grupa> default - Ustawia grupę jako domyślną\n\nPrzykłady:\n    sar create kolory\n    sar kolory default\n    sar kolory roles add Zielona\n    sar kolory max 1\n    sar kolory active false\n\nUwaga:\n    Aby użyć interfejsu SAR wpisz {{prefix}}rank [grupa]\n\n<> = wymagane, [] = opcjonalne, | = lub, nie używaj <> [] lub | w swoich komendach\nW razie pytań, proszę dołącz do serwera wsparcia. ({{prefix}}support aby wyświetlić link)```",
    "sar.groupNotFound": "Grupa `{{group}}` nie została odnaleziona.",
    "sar.groupInactive": "Grupa `{{group}}` jest wyłączona.",
    "sar.roleTooLow": "Twoja najwyższa rola jest za nisko aby móc używać tę grupę. Musisz posiadać co najmniej rolę `{{role}}`.",
    "sar.groupNoRoles": "Grupa `{{group}}` nie posiada ról do przydzielenia.",
    "sar.assign": "Przydziel: {{role}}}",
    "sar.unassign": "Zabierz: {{role}}",
    "sar.pick": "Wybierz rolę, którą chcesz sobie nadać lub odebrać",
    "sar.assigned": "Rola `{{role}}` została Tobie przydzielona.",
    "sar.unassigned": "Rola `{{role}}` została Tobie odebrana.",
    "sar.noActiveGroups": "Brak aktywnych grup :(",
    "sar.noGroups": "Brak grup :(",
    "sar.action.active": "Czy użytkownicy mają mieć możliwość przydzielania ról z tej grupy?",
    "sar.action.max": "Maksymalna liczba ról jaką użytkownicy mogą sobie nadać z tej grupy. Ustaw na 0, aby była to nieograniczona liczba.",
    "sar.action.roles": "Role z tej grupy, które można sobie nadać lub odebrać.",
    "sar.action.minrole": "Minimalna rola jaką użytkownik musi posiadać aby użyć tę grupę. Użyj `everyone` jako rolę, aby usunąć ograniczenie.",
    "sar.ayanaLowerThanRole": "Nie mogę dodać lub usunąć ról z SAR, które są wyżej niż moja najwyższa rola.",
    "sar.cannotAddHigherRoles": "Nie możesz dodać lub usunąć ról, które są wyżej lub na równi z Twoją najwyższą rolą.",
    "sar.roleAlreadyAdded": "Rola `{{role}}` jest już dodana.",
    "sar.roleNotInGroup": "Brak roli `{{role}}` w grupie.",
    "sar.rolesHelp": "Użyj `{{prefix}}sar <grupa> roles <add|remove> <rola>` aby dodać lub usunąć rolę z grupy.",
    "sar.groupAlreadyCreated": "Grupa `{{group}}` już istnieje.",
    "sar.groupCreated": "Grupa `{{group}}` została utworzona.",
    "sar.groupDeleted": "Grupa `{{group}}` została usunięta.",
    "sar.cannotCreateMoreGroups": "Nie możesz utworzyć więcej niż {{amnt}} grup.",
    "sar.cannotAddMoreRoles": "Nie możesz dodać więcej niż {{amnt}} ról do grupy.",
    "sar.checkHelp": "Komenda, którą wpisałeś jest niepoprawna. Sprawdź pomoc wpisując `{{prefix}}sar help`.",
    "sar.changed": "Zmieniono `{{action}}` w grupie `{{group}}` na `{{value}}`.",
    "sar.noDefaultGroup": "Żadna grupa nie została określona. Sprawdź pomoc wpisują `{{prefix}}sar help`.",
    "sar.cannotUseReserved": "Nie możesz użyć tego słowa jako nazwa grupy.",
    "sar.setDefault": "Ustawiono `{{group}}` jako domyślną grupę.",
    "sar.reqRoleNotOwned": "Musisz posiadać rolę `{{role}}` aby móc użyć tę grupę.",
    "sar.action.reqrole": "Rola, która użytkownik musi posiadać, aby móc użyć tę grupę. Użyj `everyone` jako rolę aby usunąć ograniczenie.",
    "sar.reqRole": "Wymagana rola",
    "sar.maxRoles": "Maksymalna liczba ról, które można sobie przydzielić",
    "sar.noLimit": "Brak limitu",
    "sar.createHelp": "Użyj `{{prefix}}sar create <grupa>` aby utworzyć grupę.",
    "words.group": "Grupa",
    "words.groups": "Grupy",
    "words.active": "Aktywne",
    "settings.actionlog.channel": "Kanał do zapisywania logów.",
    "question.alreadyHasQuestion": "Pytanie jest już uruchomione w tej gildii.",
    "finder.headerRoleCSV": "Proszę wybierz rolę, którą miałeś na myśli `{{search}}`",
    "sar.groupRenamed": "Nazwa grupy `{{group}}` została zmieniona na `{{newGroup}}`.",
    "help.bigtext.full": "Użycie: `bigtext <tekst> [--spacesize <liczba>] [--addspace <liczba>]`",
    "help.modlog.short": "Interfejs ustawień Modlog",
    "help.pat.short": "Wysyła obrazki klepiące po głowie, możesz kogoś oznaczyć, aby poklepać tę osobę",
    "help.rank.short": "Przydziel role z SAR",
    "help.reminder.short": "Ustaw przypomnienie",
    "help.sar.short": "Interfejs ustawień samodzielnie przydzielanych ról",
    "sar.rolesAlreadyAdded": "Role `{{role}}` już były dodane.",
    "sar.rolesNotInGroup": "Role `{{role}}` nie były w grupie.",
    "general.noDiscordPermission": "Przepraszam, brakuje mi uprawnień Discord `{{perm}}`.",
    "settings.guild.dmerrors": "Włącz/wyłącz dmerrors dla całego serwera.",
    "settings.user.dmerrors": "Włącz/wyłącz dmerrors.",
    "bigtext.outputTooLarge": "Ups! Wiadomość przekroczyła limit 2000 znaków!",
    "perms.legend": ":heavy_check_mark: => Domyślnie zezwolone :heavy_multiplication_x: => Domyślnie zablokowane :white_check_mark: => Zezwolone :no_entry: => Zablokowane",
    "linkcheck.error": "Nie udało się sprawdzić linku.",
    "linkcheck.pleaseWait": "Proszę czekać póki nie sprawdzę tego linku.",
    "aliases.noAliasDefined": "Najpierw musisz określić alias: `--addalias <alias>`.",
    "aliases.alreadyAyanaCmd": "Alias, który próbowałeś użyć jest już używany przez Ayanę.",
    "aliases.alreadyExists": "Alias `{{alias}}` już istnieje.",
    "aliases.aliasAdded": "Alias `{{alias}}` został dodany dla `{{cmd}}`.",
    "aliases.notAlphanumeric": "Alias musi być alfanumeryczny. Wpisałeś `{{input}}`.",
    "aliases.addHelp": "Aby dodać aliasy, użyj komendy tak jak zawsze, oraz dopisz `--addalias <alias>` na końcu.",
    "aliases.notExistent": "Alias `{{alias}}` nie istnieje.",
    "aliases.removed": "Alias `{{alias}}` został usunięty.",
    "aliases.renamed": "Nazwa aliasu `{{alias}}` została zmieniona na `{{new}}`.",
    "aliases.cannotAddAliasToAlias": "Nie możesz dodać aliasu dla aliasu.",
    "aliases.cannotHaveMore": "Nie możesz mieć więcej niż {{amnt}} aliasów.",
    "general.pagination.blocked": "Stronicowanie w tej chwili jest dla Ciebie zablokowana. Proszę zamknij Twoją aktualnie uruchomioną paginację.",
    "general.pagination.altNavi": "Wpisz `<` lub `>`, aby przełączać się między stronami. Wpisz `p<num>`, aby skoczyć do strony (np. `p10`).",
    "general.pagination.altClose": "Wpisz `x`, aby zamknąć stronicowanie.",
    "help.aliases.short": "Zarządzaj aliasami komend",
    "help.aliases.full": "```css\n[Pomoc aliasów]\n\naliases list - Pokazuje listę wszystkich aliasów stworzonych na tym kanale\naliases rename <alias> <nowa nazwa> - Zmienia nazwę aliasu\naliases remove <alias> - Usuwa alias\naliases <alias> userargs <bool> - Zezwala lub blokuje dodawanie argumentów, opcji lub flag do aliasu, w chwili jego uruchomienia. \n\nTworzenie aliasów:\n    Wpisz komendę tak jak zwykle to robisz i dodaj '--addalias <alias>' na jej końcu.\n    Ustalmy, że chcesz to zrobić z '{{prefix}}hello' jako alias komendy '{{prefix}}say hello'.\n    Aby dodać ten alias należy wpisać '{{prefix}}say hello --addalias hello'.\n    Opcje i oznaczenia również zostają zapisane, kiedy alias zostaje dodany (wykluczając --addalias).\n\n<> = wymagane argumenty, [] = opcjonalne, | = lub, Nie używaj <> [] ani | w swoich komendach.\nW razie pytań, proszę dołącz do serwera wsparcia. ({{prefix}}support aby wyświetlić link)```",
    "sar.assignmentInterface": "Aby użyć interfejsu przydzielania SAR użyj `{{prefix}}rank [grupa]`.",
    "general.ayanaRoleTooLow": "Nie mogę użyć lub zmodyfikować roli `{{role}}`, ponieważ moja rola nie jest od niej wyższa. Proszę przesuń mnie wyżej.",
    "general.userRoleTooLow": "Docelowa rola nie może zostać użyta lub zmodyfikowana, ponieważ twoja najwyższa rola nie znajduje się nad nią.",
    "aliases.empty": "Nie ustawiono żadnych aliasów dla tego serwera. Wpisz `aliases`, bez argumentów, aby wyświetlić pomoc.",
    "music2.skipEmpty": "Pusta kolejka. Nic do pominięcia.",
    "general.pagination.perms": "Wygląda na to, że nie posiadam uprawnień Discord `Zarządzanie wiadomościami`. Automatycznie usunę wiadomości o zmianie strony, kiedy dostanę te uprawnienie.",
    "aliases.updatedAlias": "Zmieniono w aliasie `{{alias}}` wartość z `{{key}}` na `{{Value}}`.",
    "aliases.setting.userargs": "Zezwól lub zabroń użytkownikom na dodawanie argumentów, opcji lub flag do komendy, którą Twój alias wykonuje",
    "aliases.userargs": "Argumenty użytkownika",
    "words.alias": "Alias",
    "general.banInfo": "Zostałeś zbanowany z serwera, na którym się znajdowałeś.",
    "words.reason": "Powód",
    "actionlog.newChannel": "Nowy kanał",
    "actionlog.oldChannel": "Stary kanał",
    "settings.guild.dmbans": "Włącz/Wyłącz dmbans i dmkicks dla całego serwera.",
    "general.pagination.cooldown": "Woah! Nie tak szybko - wejścia paginacji muszą ochłonąć.",
    "general.commandNotFound": "Nie można odnaleźć komendy.",
    "help.footer": "<> = wymagane argumenty, [] = opcjonalne, | = lub. Nie używaj <> [] ani | w swoich komendach.\nW razie pytań, proszę dołącz do serwera wsparcia. ({{prefix}}support aby wyświetlić link z zaproszeniem)",
    "help.aliases.header": "[Pomoc - Aliasy]",
    "help.aliases.desc.list": "Wyświetl wszystkie aliasy stworzone na tym serwerze",
    "help.aliases.desc.rename": "Zmień nazwę aliasu",
    "help.aliases.desc.remove": "Usuwa aliasy",
    "help.aliases.desc.userargs": "Zezwala lub blokuje dodawanie argumentów, opcji i flag do aliasu, w chwili jego uruchomienia",
    "help.aliases.group.createAlias": "Tworzy alias",
    "help.aliases.desc.createAlias": "    Wpisz komendę tak jak zwykle to robisz i dopisz '--addalias <alias>' na jej końcu.\n    Ustalmy, że chcesz to zrobić z '{{prefix}}hello' jako alias komendy '{{prefix}}say hello'.\n    Aby dodać ten alias należy wpisać '{{prefix}}say hello --addalias hello'.\n    Opcje i flagi również zostają zapisane wraz z utworzeniem aliasu (wykluczając --addalias).",
    "help.prune.header": "[Pomoc - Usuwanie wiadomości]",
    "help.prune.desc.prune": "Usuwa daną ilość wiadomości",
    "help.prune.desc.bots": "Usuwa wszystkie wiadomości napisane przez boty",
    "help.prune.desc.user": "Usuwa wiadomości określonego użytkownika",
    "help.prune.desc.filter": "Usuwa wiadomości z określoną zawartością",
    "help.prune.desc.attachments": "Usuwa wiadomości zawierające załączniki (można używać z --embeds)",
    "help.prune.desc.embeds": "Usuwa wiadomości zawierające osadzone obiekty (można używać z --attachments)",
    "help.prune.desc.pinned": "Usuwa przypięte wiadomości (domyślnie nie są one kasowane)",
    "help.prune.desc.invites": "Usuwa wiadomości zawierające zaproszenia na serwery Discord",
    "help.prune.desc.silent": "Pomija wyświetlenie wyniku skasowanych wiadomości",
    "aliases.newName": "Nowa nazwa",
    "words.amount": "Ilość",
    "words.options": "Opcje",
    "words.examples": "Przykłady",
    "words.search": "Szukaj",
    "words.filter": "Filtr",
    "words.boolean": "Boolean",
    "words.number": "Numer",
    "words.usage": "Użycie",
    "words.text": "Tekst",
    "words.command": "Komenda",
    "help.cmdForMoreInfo": "Uruchom `{{cmd}}`, aby wyświetlić więcej informacji o tej komendzie.",
    "help.music.header": "[Pomoc - Muzyka]",
    "help.music.desc.queue": "Wyświetla kolejkę lub dodaje piosenkę/playlistę",
    "help.music.desc.enqueue": "Dodaje piosenkę/playlistę",
    "help.music.desc.enqueueNext": "Dodaje piosenkę/playlistę jako następną pozycję",
    "help.music.desc.purge": "Usuwa wszystkie piosenki z kolejki",
    "help.music.desc.delete": "Usuwa piosenkę lub piosenki z kolejki",
    "help.music.desc.play": "Zaczyna odtwarzanie i/lub dodaje piosenkę/playlistę",
    "help.music.desc.skip": "Pomija/usuwa piosenkę, z pozycji 1, z kolejki",
    "help.music.desc.shuffle": "Miesza kolejkę",
    "help.music.desc.repeat": "Zarządza trybem powtarzania",
    "help.music.desc.providers": "Wyświetla listę dostępnych dostawców",
    "help.music.desc.join": "Dołącza do Twojego kanału głosowego",
    "help.music.desc.leave": "Opuszcza obecny kanał głosowy",
    "help.perms.header": "[Pomoc - Uprawnienia]",
    "help.perms.desc.allow": "Zezwala węzeł uprawnień (dołącz dokładnie jedną z poniższych opcji)",
    "help.perms.desc.default": "Resetuje węzeł uprawnień (dołącz dokładnie jedną z poniższych opcji)",
    "help.perms.desc.deny": "Blokuje węzeł uprawnień (dołącz dokładnie jedną z poniższych opcji)",
    "help.perms.desc.show": "Wyświetla uprawnienia (dołącz dokładnie jedną z poniższych opcji)",
    "help.perms.desc.nodes": "Wyświetla listę węzłów uprawnień",
    "help.perms.desc.channelUser": "Ustawia lub wyświetla uprawnienia użytkownika dla kanału",
    "help.perms.desc.channelRole": "Ustawia lub wyświetla uprawnienia roli dla kanału",
    "help.perms.desc.channel": "Ustawia lub wyświetla uprawnienia kanału",
    "help.perms.desc.user": "Ustawia lub wyświetla uprawnienia użytkownika",
    "help.perms.desc.role": "Ustawia lub wyświetla uprawnienia roli",
    "help.perms.desc.guild": "Ustawia lub wyświetla uprawnienia serwera",
    "help.perms.desc.note": "    Uprawnienia mają kolejność opcji, co oznacza, że użytkownik w kanale ma największy\n    poziom, a serwer (gildia) najmniejszy.",
    "help.role.header": "[Pomoc - Role]",
    "help.role.desc.give": "Nadaje rolę",
    "help.role.desc.take": "Zabiera rolę",
    "help.role.desc.modify": "Modyfikuje rolę",
    "help.role.options.giveTake": "Opcje dla nadawania i zabierania ról",
    "help.role.desc.bots": "Zmieni jedynie role botów",
    "help.role.desc.users": "Zmieni role tylko użytkownikom",
    "help.role.desc.user": "Zmieni rolę tylko wybranym użytkownikom",
    "help.role.desc.inrole": "Zmieni rolę użytkownikom, którzy posiadają określoną rolę",
    "help.role.desc.notinrole": "Zmieni rolę użytkownikom, którzy nie posiadają określonej roli",
    "help.role.desc.noroles": "Zmieni rolę użytkownikom bez ról",
    "help.role.options.modify": "Opcje dla modyfikowania ról",
    "help.role.desc.name": "Zmienia nazwę roli",
    "help.role.desc.color": "Zmienia kolor roli",
    "help.role.desc.moveAfter": "Ustawia pozycję roli na jedną niżej niż wskazana",
    "help.role.desc.note": "    Ta komenda nie pozwala nadawać, zabierać lub modyfikować ról,\n    które są wyższe lub równe Twojej lub Ayany najwyższej roli.",
    "help.sar.header": "[Pomoc - Self Assignable Roles (SAR)]",
    "help.sar.desc.help": "Wyświetla tę wiadomość",
    "help.sar.desc.create": "Tworzy grupę SAR",
    "help.sar.desc.delete": "Usuwa grupę SAR",
    "help.sar.desc.rename": "Zmienia nazwę grupy SAR",
    "help.sar.desc.groups": "Wyświetla wszystkie grupy SAR",
    "help.sar.groupModification": "Modyfikacje grupy",
    "help.sar.desc.active": "Włącza lub wyłącza grupę",
    "help.sar.desc.reqrole": "Ustawia rolę jaką użytkownik musi posiadać aby móc użyć danej grupy",
    "help.sar.desc.max": "Ustala maksymalną liczbę ról jaką użytkownik może sobie nadać z danej grupy",
    "help.sar.desc.rolesAdd": "Dodaje rolę do grupy",
    "help.sar.desc.rolesRemove": "Usuwa rolę z grupy",
    "help.sar.desc.default": "Ustawia grupę jako domyślną",
    "help.sar.desc.note": "    Aby użyć interfejsu SAR użyj {{prefix}}rank [grupa]",
    "perms.permNode": "Węzeł uprawnień",
    "perms.addon": "Bardziej szczegółową pomoc można znaleźć pod adresem {{url}}",
    "words.note": "Uwaga",
    "words.aliases": "Aliasy",
    "words.name": "Nazwa",
    "words.page": "Strona",
    "words.locale": "Język",
    "words.word": "Słowo",
    "rolemembers.header": "Użytkownicy z rolą {{role}}",
    "ban.days": "Dni",
    "music.songNameYt": "Nazwa piosenki (YT)",
    "help.afk.short": "Daj znać, że jesteś AFK, za każdym razem, gdy Ciebie wspomną",
    "afk.mentionMessage": "Użytkownik {{user}} jest AFK.",
    "afk.noLongerAfk": "Nie jesteś już AFK.",
    "afk.nowAfk": "Jesteś od teraz AFK. Następująca wiadomość zostanie wyświetlona, jeżeli ktoś Cię wspomni i wiadomości AFK będą włączone na serwerze:",
    "settings.guild.afk": "Włącz/Wyłącz wiadomości AFK dla całego serwera.",
    "afk.afkSince": "AFK od",
    "words.option": "Opcja",
    "words.message": "Wiadomość",
    "afk.messageTooLarge": "Twoja wiadomość AFK nie może być dłuższa niż 1024 znaki.",
    "fortune.invalidCategory": "Nieprawidłowa kategoria! Kategorie '{{categories}}`.",
    "pick.inputTooLarge": "Treść opcji, którą chciałam wybrać, jest za długa.",
    "pick.picked": "Wybrałam: {{option}}",
    "random.upperBound": "Górna granica",
    "random.lowerBound": "Dolna granica",
    "random.noNumber": "Przynajmniej jeden z podanych argumentów nie jest liczbą.",
    "random.numberTooLarge": "Przynajmniej jedna z podanych liczb jest za duża. Maksymalna możliwa liczba: {{max}}.",
    "random.lowerBoundTooLarge": "Dolna granica nie może być większa niż górna.",
    "random.result": "Twoją losową liczbą jest {{number}}.",
    "words.streams": "Strumienie",
    "words.shard": "Shard",
    "general.invalidEmbed": "Załącznik, który próbowałam wysłać jest nieprawidłowy. Otrzymano następujący błąd. Jeżeli potrzebujesz pomocy, proszę zgłoś to na naszym serwerze (wpisz komendę `support` dla otrzymania zaproszenia) \n```{error}```",
    "pro.upgraded": "Ayana pro została aktywowana.\nProszę zaproś ją tutaj: {{invite}}",
    "pro.downgraded": "Ten serwer nie posiada już Ayana PRO.",
    "pro.modificationError": "Coś poszło nie po myśli podczas odświeżania statusu Ayany PRO.",
    "pro.noSubscriptions": "Nie posiadasz żadnych subskrypcji. Ayanę PRO możesz uzyskać poprzez wsparcie Ayany na Patreonie.",
    "pro.alreadyUpgraded": "Ayana PRO jest już aktywna na tym serwerze.\nAby ukończyć proces, dodaj Ayanę PRO: {{invite}}",
    "pro.cannotUpgradeMore": "Nie możesz ulepszyć tego serwera do Ayana PRO, ponieważ zużyłeś wszystkie swoje ulepszenia.",
    "pro.notUpgraded": "Ten serwer nie został zaktualizowany do Ayana PRO.",
    "pro.processingError": "Coś poszło nie tak podczas próby połączenia z serwisem subskrypcji.",
    "pro.upgradePromo": "Potrzebujesz Ayana PRO, aby użyć tej funkcji.",
    "pro.pledgeTooLow": "Twoja donacja jest za niska, aby móc ustawić wiadomość darczyńcy.",
    "pro.donatorTextNotSet": "Nie posiadasz ustawionej wiadomości darczyńcy, która mogłaby zostać zaktualizowana.",
    "pro.noPatreon": "Potrzebujesz wspierać Ayanę na Patreonie, aby móc ustawić wiadomość darczyńcy.",
    "general.invalidOpt": "Wybrałeś nieprawidłową opcję `{{opt}}`. Proszę popraw wpisaną komendę i spróbuj ponownie.",
    "general.invalidFlag": "Wpisano nieprawidłową flagę `{{flag}}`. Popraw komendę i spróbuj ponownie.",
    "help.reminder.header": "[Pomoc - Przypomnienia]",
    "help.reminder.desc.add": "Dodaje nowe przypomnienie",
    "help.reminder.desc.remove": "Usuwa przypomnienie używając wyszukiwania tekstu lub jego ID",
    "help.reminder.desc.list": "Wyświetla listę Twoich przypomnień",
    "invite.alpha": "Nie ma problemu :ok_hand:\n\nAbym dołączyła do twojego serwera kliknij poniższy link:\n\n{{invite}}\n\nUwaga: Nie nadawaj Ayana Alpha zbyt dużo uprawnień na Twoim serwerze. Jest ona bardzo niestabilna i nie ma gwarancji, że nic nie zepsuje na Twoim serwerze.",
    "reminder.reminderString": "Wiadomość przypomnienia (zobacz przykłady)",
    "events.processingError": "Coś poszło nie tak podczas łączenia z usługą wydarzeń.",
    "help.prune.desc.reactions": "Usuwa reakcje z dopasowanych wiadomości",
    "help.prune.desc.system": "Usuwa wiadomości systemowe (Ignoruje -a, -e, -p, -i oraz -r)",
    "words.voiceChannel": "Kanał Głosowy",
    "words.textChannel": "Kanał Tekstowy",
    "music3.join": ":white_check_mark: Dołączono do :speaker: `{{voice}}` i powiązano z :newspaper: `{{text}}`.",
    "music3.leave": ":no_entry: Opuszczono i rozwiązano kanały.",
    "music3.alreadyConnecting": "Mam już oczekujące połączenie dla tego serwera. Poczekaj, aż zakończy się, zanim spróbujesz ponownie.",
    "music3.noNodes": "Brak dostępnych węzłów muzycznych dla `{{region}}`. Proszę, spróbuj innego regionu.",
    "music3.nowplaying": "Odtwarzanie: {{title}}",
    "music3.skip": ":fast_forward: Pominięto [{{title}}]({{uri}}).",
    "music3.deletedMultiple": "Usunięto `{{count}}` piosenek z kolejki.",
    "help.fullHelp.header": "{{emoji}} **Witaj! Jestem Ayana!**\n\nPod spodem możesz sprawdzić wszystkie komendy jakie znam.\nJeżeli potrzebujesz dokładniejszej pomocy dołącz do naszego [serwera wsparcia]({{invite}}).\n\n**Miłego dnia!**",
    "help.fullHelp.info": "**Użycie `{{catHelp}}` aby uzyskać więcej informacji o kategorii.\nUżyj `{{cmdHelp}}` aby uzyskać więcej informacji o komendzie.**\n\n**Przykłady:**\n`{{prefix}}help ayana` aby wyświetlić ogólną pomoc kategorii Ayana.\n`{{prefix}}help music` aby wyświetlić szczegółową pomoc komend muzyki.",
    "help.fullHelp.usefulLinks": "**Użyteczne linki:**\n[Zaproś mnie]({{invite}}), [Minimalne zaproszenie]({{inviteMin}}), [Status Ayany]({{status}}), [Serwer wsparcia]({{supportInvite}}), [Dotacje]({{donate}}), [Twitter]({{twitter}}), [Facebook]({{facebook}}",
    "words.category": "Kategoria",
    "words.developers": "Deweloperzy",
    "help.fortune.short": "Wiadomość z ciasteczka fortuny",
    "help.pick.short": "Pozwól mi pomóc, kiedy nie możesz zdecydować",
    "help.pro.short": "Zarządzanie Ayaną PRO",
    "help.random.short": "Generator liczb losowych",
    "help.urban.short": "Szuka definicji słowa na urbandictionary.com",
    "help.awoo.short": "Wysyła obrazki z Momiji/Wan, które robią 'awoo'",
    "help.bang.short": "Zastrzel kogoś lub coś",
    "help.blush.short": "Wysyła zdjęcia rumieniących się postaci",
    "help.confused.short": "Wysyła obrazek zakłopotanej dziewczyny z anime",
    "help.cuddle.short": "Obrazek z wtulaniem się: możesz  również kogoś oznaczyć, aby się wtulić",
    "help.dance.short": "Wysyła zdjęcie tańczących postaci",
    "help.hug.short": "Obrazek z przytulaniem; możesz również kogoś oznaczyć, aby się przytulić",
    "help.idk.short": "Wysyła obrazek ze wzruszaniem ramion",
    "help.insult.short": "Wysyła losowy obraźliwy obrazek: możesz również kogoś oznaczyć, aby ich obrazić",
    "help.jojo.short": "Wysyła mema z JoJo's Bizarre Adventure",
    "help.kiss.short": "Wysyła całujące zdjęcie, możesz również kogoś oznaczyć, aby tą osobę pocałować",
    "help.lick.short": "Wysyła liżący obrazek, możesz kogoś oznaczyć, aby polizać tę osobę",
    "help.megumin.short": "Wyświetla GIFy z Megumin z anime Konosuba",
    "help.nom.short": "Wysyła losowe jedzące/omnomnom zdjęcie",
    "help.nyan.short": "Wyświetla obrazek neko girl",
    "help.owo.short": "Wysyła memy z 'OwO, what's this?'",
    "help.poke.short": "Wysyła zaczepkę w zdjęciu, możesz również kogoś oznaczyć, aby tę osobę zaczepić",
    "help.slap.short": "Wysyła policzkujące zdjęcie, możesz również kogoś oznaczyć, aby uderzyć tę osobę",
    "help.sleepy.short": "Wysyła śpiące zdjęcie",
    "help.smile.short": "Wysyła uśmiechnięte zdjęcie",
    "help.spongebob.short": "Drwiący Spongebob wraz z zmemowanym, podanym tekstem",
    "help.stare.short": "Wyświetla obrazek z wpatrującą się postacią, oznacz kogoś, aby się gapić tę osobę",
    "help.teehee.short": "Wysyła chichoczące zdjęcie",
    "help.thumbsup.short": "Wysyła aprobujące zdjęcie z kciukiem w górę",
    "help.triggered.short": "Triggered mem, oznacz kogoś aby, pokazać, że się zdenerwowałeś",
    "help.wag.short": "Wysyła zdjęcie postaci z machającym ogonem",
    "help.waifuinsult.short": "Wysyła mema 'your waifu is shit'",
    "help.wasted.short": "Wysyła memy 'wasted'",
    "help.music.desc.bindVoice": "Określa kanał głosowy do przyłączenia",
    "help.music.desc.bindText": "Określa kanał tekstowy do powiązania",
    "help.music.desc.selectRegion": "Wymusza połączenie z określonym regionem",
    "help.music.desc.enqueuePosition": "Dodaje do kolejki piosenkę/playlistę na określoną pozycję",
    "words.queue": "Kolejka",
    "words.playlist": "Playlista",
    "words.song": "Piosenka",
    "music3.enqueued.playFooter": "Wpisz 'music play' aby zacząć odtwarzanie.",
    "music3.enqueued": "Dodano: `{{title}}` na pozycję **{{position}}**",
    "music3.enqueuedPlaylist": "Dodano: `{{count}}` piosenek z `{{title}}`",
    "music3.queueUri": "[Zobacz na ayana.io]({{uri}})",
    "pro.guildNotPro": "Proszę ulepsz ten serwer do Ayana PRO w celu uzyskania tej funkcji. Aby uzyskać więcej informacji wpisz `pro`.",
    "pro.instanceNotPro": "Ta funkcja jest tylko dostępna dla Ayany PRO. Proszę dodaj ją do swojego serwera, wpisz `pro invite` aby wyświetlić zaproszenie.",
    "music3.repeat.one": ":repeat_one: Powtarzanie jednej piosenki",
    "music3.repeat.on": ":repeat: Powtarzanie całej kolejki",
    "music3.repeat.off": ":no_entry: Powtarzanie wyłączone",
    "music3.repeat.specifyMode": "Proszę określ tryb powtarzania: <on|one|off>",
    "music3.skipEmpty": "Kolejka jest pusta. Nic do pominięcia.",
    "music3.playEmpty": "Kolejka jest pusta, dodaj jakieś piosenki!",
    "settings.guild.publicupgrades": "Pozwala komukolwiek na serwerze ulepszyć wersję do Ayana PRO. Tylko administratorzy lub użytkownik, który ulepszył, może wyłączyć.",
    "music3.autoLeave": ":no_entry_sign: Opuszczono kanał z powodu braku aktywności. Wesprzyj Ayanę i otrzymaj dodatkowe funkcje z Ayaną PRO. {{uri}}",
    "music3.autoLeaveNoPromo": ":no_entry_sign: Opuszczono kanał z powodu braku aktywności. Dziękuję za używanie Ayany!",
    "pro.noPublicUpgrades": "Ten serwer nie pozwala na publiczne ulepszanie Ayana PRO. Sprawdź `settings guild publicupgrades`.",
    "pro.cannotDowngrade": "Tylko administrator lub użytkownik, który ulepszył ten serwer do Ayany PRO może go zdegradować.",
    "pro.description": "Ayana PRO jest prywatnie hostowaną wersją, wyłączną dla darczyńców.\nLepsza jakość odtwarzania, większa stabilność oraz profesjonalne wsparcie to tylko kilka z korzyści jakie zyskujesz.\n\nAby dowiedzieć się więcej odwiedź {{uri}}\nbądź dodaj Ayanę {{invite}}.",
    "pro.noData": "Nie posiadasz subskrypcji Ayana PRO. Aby uzyskać więcej informacji wpisz `pro`.",
    "sar.pickGroup": "Wybierz grupę, z której role chcesz sobie nadać lub odebrać.",
    "help.prune.desc.pruneUntil": "Usuwa wiadomości do momentu dotarcia do określonej wiadomości",
    "words.messageID": "ID wiadomości",
    "music3.invalidIndex": "Podano nieprawidłowy indeks. Spróbuj ponownie.",
    "general.targetHigherThanAyana": "{{target}} posiada większą rolę od mojej. Nie mogę jej modyfikować.",
    "general.discordError": "Discord doświadczył problemów podczas przetwarzania ostatniego żądania. Proszę spróbować ponownie. ({{error}})",
    "prune.untilMessageNotFound": "Wiadomość, która została użyta w opcji `--until`, nie została znaleziona w tym kanale.",
    "role.moveAfterOptError": "Proszę wybrać rolę do przeniesienia.",
    "music3.voiceOptError": "Proszę uwzględnij kanał głosowy w opcji `--voice`.",
    "music3.textOptError": "Proszę uwzględnij kanał głosowy w opcji `--text`.",
    "music3.regionOptError": "Proszę uwzględnij prawidłowy region w opcji `--region`.",
    "providers.twitch.channelNotStreaming": "Kanał `{{chnl}}` aktualnie nie jest obsługiwany.",
    "general.mustBeNumber": "`{{obj}}` musi być liczbą.",
    "general.mustBeNumberSmallerEq": "`{{obj}}` musi być liczbą <= {{bound}}.",
    "pro.disabled": "Ayana PRO jest wyłączona w tej wersji Ayany.",
    "settings.guild.dmhelp": "Włącz/Wyłącz pomoc wysyłaną przez pw.",
    "weebsh.noType": "Ten typ nie został odnaleziony na weeb.sh.",
    "help.sentToDM": "Okej, sprawdź prywatne wiadomości. Wysłałam Tobie tam pomoc.",
    "help.dmError": "Przepraszam, nie byłam w stanie wysłać Tobie pomocy przez PW. Proszę, upewnij się, że mogę Tobie wysłać prywatną wiadomość.",
    "general.andMore": "... i {{amnt}} więcej",
    "prune.statusFetching": "Przygotowywanie {{amount}} wiadomość/ci... To może zająć chwilę.",
    "prune.statusDeleting": "Usuwanie {{amount}} wiadomości... Może to zająć chwilę.",
    "prune.statusRemovingReactions": "Usuwanie reakcji z {{amount}} wiadomości... Może to zająć chwilę.",
    "prune.doneProcessing": "Zrobione! Wyniki czyszczenia znajdziesz poniżej.",
    "prune.totalMsgsScanned": "Przeskanowanych wiadomości",
    "prune.totalMsgsReactionsRemoved": "Wiadomości, z których reakcje zostały usunięte,",
    "prune.removedByUser": "Wiadomości, z usuniętymi reakcjami użytkowników",
    "music3.deleteEmpty": "Kolejka jest pusta, nie ma niczego do usunięcia!",
    "music3.alreadySkipping": "Pominięcie utworu zostało już zażądane. Zauważ, że możesz wyczyścić kolejkę wpisując `music purge`.",
    "reminder.dm": "Zostałam poproszona,  aby przypomnieć Tobie o tym. {{reminder}}",
    "general.kickInfo": "Zostałeś wyrzucony z serwera.",
    "weebsh.fail": "Nie znaleziono obrazków `{{type}}` z weeb.sh :< Powinieneś spróbować ponownie.",
    "weebsh.noTypes": "Kategorie weeb.sh nie zostały jeszcze wczytane. Proszę czekać.",
    "help.pro.header": "[Pomoc Ayana PRO]",
    "help.pro.desc.upgrade": "Ulepsz ten serwer do Ayany PRO",
    "help.pro.desc.downgrade": "Zredukuj ten serwer lub określony przez ID z Ayany PRO",
    "help.pro.desc.status": "Wyświetla działające subskrypcje Ayana PRO i liczbę ulepszeń",
    "help.pro.desc.check": "Sprawdza czy ten serwer posiada Ayana PRO, oraz kto go ulepszył",
    "help.pro.desc.redeem": "Wykorzystaj klucz Ayana PRO",
    "pro.redeemingKey": "Wymienianie klucza... Proszę czekać.",
    "pro.enterKey": "Proszę wprowadzić klucz, aby go wykorzystać.",
    "pro.invalidKey": "Klucz, który wprowadziłeś jest niepoprawny.",
    "pro.keyAlreadyUsed": "Klucz, który wprowadziłeś, został już wykorzystany.",
    "pro.keyNotFound": "Klucz, który wprowadziłeś, nie został odnaleziony. Pozostało {{triesLeft}} prób na dziś.",
    "pro.noTries": "Wykorzystałeś wszystkie próby wymiany na dzisiaj. Proszę poczekać do jutra.",
    "pro.keyReloadError": "Twój klucz został wymieniony, ale coś poszło nie tak podczas przeładowania. To może zająć trochę dłużej, zanim otrzymasz subskrypcję.",
    "pro.redeemError": "Coś poszło nie tak podczas próby wymiany klucza.",
    "pro.redeemSuccess": "Sukces! Twój klucz został wymieniony. Możesz sprawdzić status subskrypcji używając `pro status` oraz ulepszyć swój serwer poprzez `pro upgrade`.",
    "pro.guildCheck": "Ten serwer został ulepszony przez `{{by}}` następującego dnia: `{{on}}` ({{ago}} ago).",
    "words.key": "Klucz",
    "words.guildID": "ID serwera",
    "music3.searchNoResults": "Nic nie znaleziono. Spróbuj wpisać coś innego.",
    "pro.manualSubscriptionRunningOut": "Twoja subskrypcja Ayany PRO (ID: {{id}}) straci ważność w czasie krótszym niż 72 godziny ({{expires}}).\nPo wygaśnięciu, każdemu serwerowi,  korzystającemu z tej subskrypcji, zostanie przywrócona normalna wersja Ayany.\nMożesz sprawdzić, swoje subskrypcje, ich liczbę i ulepszone serwery, komendą `pro status`.\n\nDla utrzymania Ayany PRO i serwera pomocy Ayany, rozważ kupno subskrypcji: {{url}}",
    "pro.pledgeDeclinedNotify": "Nie otrzymano zapłaty subskrypcji z Patreona w tym miesiącu.\nProszę sprawdź Patreona I upewnij się, że twoja metoda płatności jest poprawna.\nJeśli zapłaciłeś miesięczną kwotę i otrzymujesz tą wiadomość, powiadom nas na kanale Wsparcia Patreona Ayany.\n\nJesli twoja wpłata piątego dnia nie zostanie uiszczona, subskrypcja zostanie automatycznie cofnięta, a Ayana PRO opuści serwer.",
    "music3.nothingPlaying": "Nic nie jest odtwarzane",
    "help.music.desc.nowplaying": "Pokazuje aktualnie odtwarzaną piosenkę",
    "aliases.notValid": "Alias nie może zawierać znaków: `\", -, \\`."
}
