{
    "general.guildOnly": "Disponibil doar în Servere. ",
    "general.error": "Hopa! O eroare s-a produs. Te rugăm să raportezi asta pe grupul de suport. ( comanda `support` ca să primesti invite)\n```{{error}}```",
    "general.cooldown": "Calmează-te! Mai încet, comanda asta e în cooldown.",
    "finder.failUser": "Nu s-a putut găsi utilizatorul.",
    "finder.failRole": "Nu s-a putut găsi rolul.",
    "finder.failChannel": "Nu s-a putut găsi canalul.",
    "finder.failGuild": "Nu s-a putut găsi serverul.",
    "finder.headerRole": "[Căutare Roluri]",
    "finder.headerUser": "[Căutare Utilizatori]",
    "finder.headerGuild": "[Căutare Grupuri]",
    "finder.headerChannel": "[Căutare Canale]",
    "finder.headerUserGuild": "[Căutare utilizator]",
    "invite.text": "Un lucru sigur :ok_hand:\n\nCa să mă alătur serverului tău, te rog să alegi unul dintre linkuri:\n\nModerare (recomandat): {{invite}}\nMinim (nerecomandat): {{invitemin}}",
    "locale.userUpdate": "Limba ta a fost setată pe `{{locale}}`.",
    "locale.guildUpdate": "Limba grupului a fost setată pe: `{{locale}}`.",
    "locale.headerAvail": "[Limbi disponibile]",
    "locale.fail": "Am eșuat în a actualiza limba.",
    "modlog.genFail": "Eroare Modlog.",
    "modlog.addFail": "Am eșuat în a adăuga un obiect nou în modlog.",
    "modlog.created": "Obiect creat în modlog.",
    "modlog.updated": "Obiect modlog actualizat.",
    "modlog.updateFail": "Am eșuat în a actualiza detaliile obiectului din log.",
    "modlog.hackAdd": "Se pare că `{{input}}` este un ID de utilizator. Continuati [y/n]?",
    "perms.denied": "Nu ai permisiunea `{{node}}`.",
    "perms.cmdDenied": "Nici să nu te gândești. Trebuie să fii deținătorul serverului sau să ai Admin ca să editezi permisiunile.",
    "perms.resetall.owner": "Comanda asta poate fi utilizată doar de deținătorul serverului.",
    "perms.resetall.reset": "Permisiunile au fost resetate.",
    "perms.resetall.error": "Nu am putut reseta toate permisiunile.",
    "perms.failedUpdate": "Am eșuat să actualizez nodul de permisiuni.Te rog să contactezi serverul de suport dacă eroarea persistă.",
    "perms.noRole": "Nici un rol specificat.",
    "perms.roleUserConflict": "Rolul si Utilizatorul nu pot fi specificate în același timp.",
    "perms.invalidOpt": "Numai `--channel [canal], --user [utilizator], --role [rol]` sunt opțiuni valabile, nici un argument cu privire la canal și utilizator nu își asumă valorile curente.",
    "prefix.text": "Prefixul pentru acest server este `{{prefix}}`.",
    "prune.missingPerms": "Îmi pare rău, nu am permisiunea `Manage Messages`.",
    "prune.fetchFail": "Am eșuat în a arăta mesajele.",
    "prune.filterHelp": "Filtrul are nevoie de un termen de căutare.",
    "prune.userIDConf": "Se pare ca `{{input}}` e un id de utilizator.Continuati? [Y/N]",
    "remind.error": "Am nevoie de ceva să îți reamintesc.",
    "remind.invalidTime": "Timpul nu e valid.Specifica un timp mai mare de 30 sec.",
    "remind.confirm": "Ok,reminder nou pt `{{time}}` [Y/N] ?",
    "remind.okay": "Ok!Am sa ma asigur că îți reamintesc",
    "remind.failed": "Imi pare rău,nu am putut să salvez reminderul. :(",
    "remind.pm": "Mi-ai cerut să îți amintesc asta: ```{{text}}```",
    "words.user": "Utilizator",
    "words.role": "Rol",
    "words.roles": "Roluri",
    "words.channel": "Canal",
    "words.channels": "Canale",
    "words.guild": "Server",
    "words.guilds": "Servere",
    "words.version": "Versiune",
    "words.website": "Site Web",
    "words.author": "Autor",
    "words.library": "Librărie",
    "words.donate": "Donează",
    "words.member": "Membru",
    "words.members": "Membrii",
    "words.id": "ID",
    "words.region": "Regiune",
    "words.owner": "Deținător",
    "words.created": "Creat",
    "words.joined": "S-a alăturat",
    "words.icon": "Iconiță",
    "words.avatar": "Avatar",
    "words.cancel": "Anulează",
    "words.nickname": "Poreclă",
    "words.playing": "Se redă",
    "words.status": "Status",
    "words.error": "Eroare",
    "words.yes": "Da",
    "words.no": "Nu",
    "words.position": "Poziție",
    "words.color": "Culoare",
    "words.hoist": "Ridicare",
    "words.managed": "A reușit",
    "words.mentionable": "Menționabil",
    "words.permissions": "Permisiuni",
    "words.users": "Utilizatori",
    "words.topic": "Subiect",
    "words.twitter": "Twitter",
    "words.mention": "Mențiune",
    "help.ban": "Modul de folosire: `ban <utilizator> [--reason <motiv>] [--days <nr de zile>] [--soft] [--hackban]`",
    "help.kick": "Modul de folosire: `kick <utilizator> [--reason <motiv>]`",
    "help.roleinfo": "Modul de folosire: `roleinfo <rol>`",
    "help.locale": "Modul de folosire: locale [set <limba> [--guild]",
    "ban.missingUser": "Parametrul necesar lipsește utilizatorului.",
    "ban.softHackban": "Nu se poate da soft si hackban în același timp.",
    "ban.invalidDays": "Numărul de zile pe care l-ai specificat nu e o variabilă validă.",
    "ban.hackbanUserID": "Hackban are nevoie de un ID de utilizator.",
    "ban.failed": "Hmm, se pare că nu pot da ban utilizatorului. Poate nu am permisiunea să fac asta?",
    "ban.softFailed": "Eroare softban, utilizatorul a primit ban, dar am eșuat să îl debanez. Fă-o tu manual, te rog.",
    "botlist.fetchFailed": "Nu am putut obține lista de la {{provider}).",
    "botlist.headerPage": "[Pagina cu boții {{page}}/{{total}}",
    "support.text": "Pentru suport, sugestii sau buguri, te rog să vii pe serverul de suport. {{support}}",
    "kick.failed": "Îmi pare rău, nu am putut să dau afară utilizatorul. Poate nu am permisiunea să fac asta?",
    "linkcheck.headerRedirects": "[Redirecționări]",
    "ping.pong": "Poing! {{ms}}",
    "settings.failedUpdate": "An eșuat în a actualiza Setările.",
    "settings.invalidInput": "Mă așteptam ca proprietatea să fie `{type}}`. Am primit `{{input}}`.",
    "avatar.resolveFailed": "Nu s-a putut lua avatarul.",
    "translation.nativeName": "Română",
    "translation.englishName": "Romanian",
    "channelinfo.pinned": "Mesaje Atașate",
    "channelinfo.type": "Tip de canal",
    "channelinfo.text": "Text",
    "channelinfo.voice": "Voce",
    "channelinfo.bitrate": "Bitrate-ul vocii",
    "channelinfo.connected": "Utilizatori conectați",
    "channelinfo.overwrite": "Încălcări de permisiuni",
    "music2.join": ":white_check_mark: M-am alăturat canalului de voce si m-am legat de :speaker: `{{voice}}` și :newspaper: `{{text}}`.",
    "music2.rebound": ":white_check_mark: Reiau redarea muzicii după deconectare.",
    "music2.userNoChannel": "Mai întâi alătură-te unui canal de voce.",
    "music2.leave": ":no_entry: Am părăsit și detașat canalele. Dacă ți-a plăcut să folosești Ayana te rog să consideri donatul la <https://ayana.io/donate>!",
    "music2.nowplaying": ":notes: Acum se redă: `{{title}}` cerută de `{{requester}}`.",
    "music2.enqueued": "Am adăugat la coadă: `{{title}}` în poziția **{{position}}**. Dă comanda `music play` ca să redau coada.",
    "music2.enqueuedPlaylist": "Am adăugat `{{items}}` cântece din `{{title}}`. Scrie `music play` să redai coada.",
    "music2.alreadyBound": "Deja sunt conectată si legată de un canal.",
    "music2.notBound": "Nu sunt conectată la nici un canal.",
    "music2.queuePurged": "Am șters obiectele din playlist.",
    "music2.queueItemDeleted": "Am șters `{{item}}` din coadă.",
    "music2.headerSearch": "[Rezultatele căutării]",
    "music2.pickOption": "Alege o opțiune ca să o adaugi.",
    "music2.emptyQueue": "Nu e nimeni decât noi găinile aici…",
    "music2.headerQueue": "[Lista de redare]",
    "music2.queueShuffled": ":twisted_rightwards_arrows: Am amestecat lista de redare.",
    "music2.skipped": ":fast_forward: Am sărit peste melodia `{{item}}`.",
    "music2.loopOne": ":repeat_one: Voi reda melodia curentă încontinuu.",
    "music2.loopAll": ":repeat: Voi reda coada încontinuu.",
    "music2.loopOff": "Am dezactivat redarea continuă.",
    "music2.autoPaused": ":pause_button: Am pus pauză redării din cauza lipsei de ascultători.",
    "music2.autoResumed": ":arrow_forward: Am început să redau.",
    "music2.autoLeave": ":no_entry_sign: Am ieșit din canal din cauza inactivitații. Dacă ți-a plăcut să o folosești pe Ayana te rog să donezi la <https://ayana.io/donate>!",
    "music2.fullHelp": "```css\n[Ajutor pentru muzica]\n\nmusic sq | showqueue - arată coada de redare\n   music sq --purge - șterge coada de redare\n   music sq --delete <numar> - șterge melodia de pe poziția respectivă\n\nmusic q | queue [nume melodie (yt) | url] - adaugă la coadă playlisturi sau melodii\n   music q [nume melodie (yt) | url] --next - adaugă melodia pe poziția urmatoare\n\nmusic p | play - redă muzica\nmusic s | skip - trece la melodia următoare\nmusic shuffle - amestecă coada de redare\nmusic r | repeat <all|one|off> - pornește/oprește redarea continua\n\nmusic j | join - se alătură canalului de voce în care ești. *Trebuie să fii intr-un canal de voce*\nmusic l | leave - părăsește canalul de voce\n\n<> = Informații obligatorii []= informații optionale, | = sau, nu pune <> [] or | in comenzi.\nTe rugăm să te alaturi serverului de suport pentru informații sau întrebări. (=support pentru link```",
    "music2.tooLong": "Din cauza schimbărilor în musicv3, melodiile mai lungi de 3 ore vor fi blocate **temporar**.",
    "words.type": "Tip",
    "words.value": "Valoare",
    "words.default": "Implicit",
    "words.description": "Descriere",
    "words.variables": "Variabile",
    "words.providers": "Furnizori",
    "modlog.requireReason": "Modlog activat. `--reason` trebuie să fie inclus.",
    "role.notProcessing": "Nici o cerere de rol nu este procesată chiar acum.",
    "general.unableToDM": "Nu am reușit să îți trimit um mesaj direct. Asta ar putea fi din cauza că ai opțiunea `Allow direct messages from server members` în setările din Discord dezactivată. Te rog să o activezo opțiunea ca să primești mesajul.",
    "general.forbidden": "Am încercat să îți răspund la comandă, dar, nu am permisiunea să o fac. Te rog să întrebi pe cineva din staff să îmi dea permisiunea `Send Messages` în setările din Discord.\n\nServer: `{{guild}}`\nCanal: `{{channel}}`\nComandă: `{{cmd}}`\n\nDacă nu mai vrei să vezi astfel de mesaje te rog să folosești comanda `settings user dmerrors false` în server.",
    "general.gatewayFailure": "Nu am reușit să contactez Gateway. Te rog să încerci mai târziu.",
    "general.ayanaRoleTooLow": "Rolul Ayanei este mai mic sau egal cu rolul folosit. Te rog să muți rolul Ayanei mai sus.",
    "general.userRoleTooLow": "Rolul ales else mai mare sau este cel mai mare rol și nu poate fi folosit.",
    "general.pagination": "Pagina {{page}}/{{pages}}",
    "general.targetHigherRole": "{{target}} are un rol mai mare decăt al tău. Nu îl poți modifica.",
    "general.pagination.invalidPage": "Pagină Invalidă.",
    "general.notFound": "Nu a fost găsit",
    "general.noDiscordPermission": "Îmi pare rău, nu am permisiunea `{{perm}}` din Discord.",
    "general.pagination.blocked": "Pagination-ul este blocat pentru tine chiar acum. Te rog să oprești pagination-ul activ.",
    "general.pagination.altNavi": "Scrie `<` și `>` ca să schimbi paginile. Scrie `p<num>` ca să sari la o pagina (ex. `p10`).",
    "general.pagination.altClose": "Scrie `x` ca să oprești pagination-ul.",
    "general.pagination.perms": "Aparent nu am permisiunea `manage Messages` din Discord. O să șterg mesajele care conțin schimb de pagini automat dacă am permisiunea asta.",
    "help.aliases.short": "Schimbă aliasul comenzilor",
    "help.avatar.short": "Primește avatarul unui utilizator",
    "help.bad.short": "Nu, rău!",
    "help.ban.short": "Banează utilizatori",
    "help.bigtext.short": "Generează un text cu litere regionale",
    "help.bigtextd.short": "La fel ca și bigtext, dar o să șterg mesajul",
    "help.botlist.short": "Primește lista cu boți de la carbon",
    "help.channelinfo.short": "Primește informații despre un canal",
    "help.clean.short": "O să sterg propriile mesaje din ultimele 100 de mesaje",
    "help.donators.short": "Lista persoanelor care o fac pe Ayana posibilă",
    "help.f.short": "F ca să plătești respect",
    "help.flipcoin.short": "Dă cu banul",
    "help.help.short": "Arată acest mesaj",
    "help.info.short": "Arată informații despre bot",
    "help.inu.short": "random.dog",
    "help.invite.short": "O să mă alătur serverului tău",
    "help.kick.short": "Dă kick la utilizatori",
    "help.lenny.short": "( ͡° ͜ʖ ͡°)",
    "help.lewd.short": "Aia e pervers!",
    "help.lennyd.short": "La fel ca și lenny, dar o să șterg mesajul tău",
    "help.linkcheck.short": "Folosește www.getlinkinfo.com ca să verifice unde redirecționează linkul",
    "help.locale.short": "Interfața setărilor de limbă",
    "help.modlog.short": "Interfața setărilor ModLog",
    "help.music.short": "Player de muzică",
    "help.neko.short": "random.cat",
    "help.pat.short": "Mângâiere",
    "help.perms.short": "Interfața controlului de permisiuni",
    "help.ping.short": "Ping Poing",
    "help.pout.short": "Supărat",
    "help.prefix.short": "Verifică prefixul botului",
    "help.prune.short": "Șterge mesaje",
    "help.rank.short": "Dă roluri din SAR",
    "help.reminder.short": "Lasă-mă să îți reamintesc",
    "help.role.short": "Ia, dă si modifică roluri",
    "help.roleinfo.short": "Primește informații despre un rol",
    "general.pagination.cooldown": "Woah! Mai încet, managerul de file este pe cooldown.",
    "general.banInfo": "Ai fost banat de pe un server pe care erai.",
    "general.commandNotFound": "Această comandă nu a fost găsită.",
    "help.footer": "<> = informație necesară, [] = informație opțională, | = sau, nu include <> [] sau | în comenzi\nTe rog să te alături serverului de suport pentru îtrebări. (``{{prefix}}support`` pentru link)",
    "help.aliases.header": "[Ajutor aliasuri]",
    "help.aliases.desc.list": "Arată toate aliasurile create în acest server",
    "help.aliases.desc.rename": "Redenumește aliasuri",
    "help.aliases.desc.remove": "Șterge aliasuri",
    "help.aliases.desc.userargs": "Permite sau nu argumentelor, opțiunilor sau flagurilor să fie adăugate aliasului când este executat",
    "help.aliases.group.createAlias": "Creează un alias",
    "help.aliases.desc.createAlias": "    Scrie comanda ca de obiceo și adaugă '--addalias <alias>' la sfarșitul acesteia\n    Să zicem că vrei să faci '{{prefix}}hello' ca și un alias pentru '{{prefix}}say hello'.\n    Ca să adaugi acest alias execută '{{prefix}}say hello --addalias hello'.\n    Opțiunile și flagurile sunt de asemena salvate când un alias este adăugat (în afară de --addalias desigur).",
    "help.prune.header": "[Ajutor Prune]",
    "help.prune.desc.prune": "Șterge mesaje",
    "help.prune.desc.bots": "Șterge toate mesajele create de un bot",
    "help.prune.desc.user": "Șterge toate mesajele utilizatorului specificat",
    "help.prune.desc.filter": "Șterge doar mesajele care conțin stringul specificat",
    "help.prune.desc.attachments": "Șterge doar mesajele care conțin atașamente (poate fi combinată cu --embeds)",
    "help.prune.desc.embeds": "Șterge doar mesajele care conțin embeduri (poate fi combinată cu --attachments)",
    "help.prune.desc.pinned": "Șterge si mesajele pinned (ele nu sunt șterse ca default)",
    "help.prune.desc.invites": "Șterge mesajele care conțin invitații către alte servere",
    "help.prune.desc.silent": "Silențios. Dezactivează mesajul cu rezultatele ștergerii de la final",
    "help.rolemembers.short": "Arată membrii cu acel rol",
    "help.sar.short": "Interfața rolurilor care se pot da singure",
    "help.say.short": "Lasă-mă să zic ceva",
    "help.sayd.short": "La fel ca și say, dar o să șterg comanda ta",
    "help.serverinfo.short": "Primește informații despre un server",
    "help.settings.short": "Interfața setărilor",
    "help.shrug.short": "¯\\_(ツ)_/¯",
    "help.smug.short": "Îngâmfat",
    "help.sumfuk.short": "vrei, niște futai?",
    "help.shrugd.short": "La fel ca și shrug, dar o să șterg comanda",
    "help.support.short": "Link cu invitație pentru server de suport",
    "help.userinfo.short": "Primește informații despre un utilizator",
    "help.waa.short": "Trebuie să plângi?",
    "aliases.noAliasDefined": "Trebuie să definești un alias: `--addalias <alias>`.",
    "aliases.alreadyAyanaCmd": "Aliasul pe care ai încercat să îl folosești este deja folosit de Ayana.",
    "aliases.alreadyExists": "Aliasul `{{alias}}` există deja.",
    "aliases.aliasAdded": "Aliasul `{{alias}}` a fost adăugat pentru `{{cmd}}`.",
    "aliases.notAlphanumeric": "Aliasul trebuie să fie alphanumeric. Tu ai folosit `{{input}}`.",
    "help.cmdForMoreInfo": "Folosește `{{cmd}}` pentru mai multe informații despre această comandă.",
    "help.music.header": "[Ajutor Muzică]",
    "help.music.desc.queue": "Arată coada",
    "help.music.desc.enqueue": "Adaugă un cântec sau un playlist la coadă",
    "help.music.desc.enqueueNext": "Adaugă un cântec sau playlist la următoarea(ele) poziții",
    "help.music.desc.purge": "Curăță coada",
    "help.music.desc.delete": "Șterge cântece din coadă",
    "help.music.desc.play": "Rulează cântecele din coadă",
    "help.music.desc.skip": "Sare peste cântecul curent",
    "help.music.desc.shuffle": "Amestecă coada aleator ",
    "help.music.desc.repeat": "Pornește sau oprește repetarea",
    "help.music.desc.providers": "Arată o listă cu sursele de muzică valabile",
    "help.music.desc.join": "Se alătură în canalul de voce *Notă: Trebuie să fii într-un canal* ",
    "help.music.desc.leave": "Pleacă din canalul de voce",
    "help.perms.header": "[Ajutor Permisiuni]",
    "help.perms.desc.allow": "Permite un nod de permisiuni (aplică exact una dintre opțiunile de mai jos)",
    "help.perms.desc.default": "Permite un nod de permisiuni ca și default (trebuie să folosești exact una dintre opțiunile de mai jos)",
    "help.perms.desc.deny": "Revocă un nod de permisiuni (aplică exact una dintre opțiunile de mai jos)",
    "help.perms.desc.show": "Arată permisiunile (aplică exact una dintre opțiunile de mai jos)",
    "help.perms.desc.nodes": "Arată toate nodurile de permisiuni",
    "help.perms.desc.channelUser": "Setează sau arată permisiunile unui utilizator de pe channel",
    "help.perms.desc.channelRole": "Setează sau arată permisiunile unui rol de pe channel",
    "help.perms.desc.channel": "Setează sau arată permisiunile de pe un channel",
    "help.perms.desc.user": "Setează sau arată permisiunile unui utilizator",
    "help.perms.desc.role": "Setează sau arată permisiunile unui rol",
    "help.perms.desc.guild": "Setează sau arată permisiunile serverului",
    "help.perms.desc.note": "    Permisiunile sunt în ordinea opțiunilor, ceea ce înseamnă că utilizatorul din channel\n    are cel mai mare nivel și serverul este cel mai jos nivel.",
    "help.role.header": "[Ajutor Roluri]",
    "help.role.desc.give": "Dă roluri",
    "help.role.desc.take": "Ia roluri",
    "help.role.desc.modify": "Modifică un rol",
    "help.role.options.giveTake": "Opțiuni pentru a da roluri sau a lua roluri",
    "help.role.desc.bots": "O să schimbe rolurile doar pentru boți",
    "help.role.desc.users": "O să schimbe rolurile doar pentru utilizatori",
    "help.role.desc.user": "O să schimbe rolurile doar pentru utilizatorii specificați",
    "help.role.desc.inrole": "O să schimbe rolurile doar dacă ținta are rolul specificat",
    "help.role.desc.notinrole": "O să schimbe rolurile doar dacă ținta nu are rolul specificat",
    "help.role.desc.noroles": "O să schimbe rolurile doar dacă ținta nu are roluri",
    "help.role.options.modify": "Opțiuni pentru a modifica roluri",
    "help.role.desc.name": "Redenumește un rol",
    "help.role.desc.color": "Schimbă culoarea unui rol",
    "help.role.desc.moveAfter": "Setează poziția rolului după rolul specificat",
    "help.role.desc.note": "    Această comandă nu îți permite să dai, iei sau să modifici rolurile\n    care sunt într-o poziție mai mare sau egală cu rolul tău sau al Ayanei.",
    "help.sar.header": "[Ajutor Roluri Alocate Singure (SAR)]",
    "help.sar.desc.help": "Arată acest mesaj cu ajutor",
    "help.sar.desc.create": "Creează un grup SAR",
    "help.sar.desc.delete": "Șterge un grup SAR",
    "help.sar.desc.rename": "Redenumește un grup SAR",
    "help.sar.desc.groups": "Arată toate grupele SAR",
    "help.sar.groupModification": "Modificarea unui grup",
    "help.sar.desc.active": "Activează sau dezactivează acest grup",
    "help.sar.desc.reqrole": "Setează un rol pe care utilizatorul trebuie să îl aibă pentru a folosi acest grup",
    "help.sar.desc.max": "Setează un număr maxim de roluri pe care un utilizator poate să le aibă din acest grup",
    "help.sar.desc.rolesAdd": "Adaugă roluri la grup",
    "help.sar.desc.rolesRemove": "Șterge roluri din acest grup",
    "help.sar.desc.default": "Setează sau nu acest grup ca și grupul implicit",
    "help.sar.desc.note": "    Ca să folosești interfața alocării trebuie să fololești {{prefix}}rank [grup]",
    "aliases.addHelp": "Ca să adaugi aliasuri folosește comanda pe care vrei să o adaugi ca și cum ai folosi-o în mod normal și adaugă `--addalias <alias>`.",
    "aliases.notExistent": "Aliasul `{{alias}}` nu există.",
    "aliases.removed": "Aliasul `{{alias}}` a fost șters.",
    "aliases.renamed": "Aliasul `{{alias}}` a fost redenumit la `{{new}}`.",
    "aliases.cannotAddAliasToAlias": "Nu poți adăuga un alias pentru un alias.",
    "aliases.cannotHaveMore": "Nu poți avea mai mult de {{amnt}} aliasuri.",
    "aliases.empty": "Nu există aliasuri pentru acest server. Te rog să folosești comanda `aliases` fără argumente ca să primești ajutor.",
    "aliases.updatedAlias": "Am schimbat `{{key}}` pentru aliasul `{{alias}}` la `{{value}}`.",
    "aliases.setting.userargs": "Permite sau nu unui utilizator să adauge argumente. opțiuni sau flaguri la comenzile pe care aliasul tău le execută",
    "aliases.userargs": "Argumentele utilizatorului",
    "aliases.newName": "Nume nou",
    "bigtext.outputTooLarge": "Whoops! Mesajul de output este mai mare de 2000 de caractere!",
    "finder.headerRoleCSV": "Te rog să alegi rolul pe care l-ai vrut cu `{{search}}`",
    "finder.skippingUser": "Sărind peste utilizatorul `{{search}}`",
    "finder.skippingRole": "Sărind peste rolul `{{search}}`",
    "invite.patreon": "Ayana Patreon este o opțiune exclusivă pentru donatorii cu Patreon ai Ayanei!\nDacă vrei să ajuți cu plătirea facturilor pentru Ayana atunci primește niște opțiune barosane în proces, și după aceea consideră donatul :heart:!\n\n{{patreon}}",
    "invite.error": "Îmi pare rău, dar nu am linkul cu invite pentru `{{instance}}`\nInstanțele valide sunt `production, patreon, beta`",
    "flipcoin.heads": "Cap!",
    "flipcoin.tails": "Pajură!",
    "locale.percent": "[{{num}}%]",
    "locale.usageShort": "Folosire: `locale set [limbă] [--guild]` sau `locale list`",
    "locale.invalidLocale": "`{{input}}` nu este o limbă recunoscută. Te rog să folosești `locale list` pentru o listă cu opțiuni valide.\nAlternativ, dacă vrei să ajuți cu traducerea mea atunci deschide linkul {{url}}",
    "locale.current": "```css\nSetările Curente\n Server: {{guild}}\n Utilizator: {{user}}```\n{{help}}\nDe asemenea dacă vrei sa ajuți cu traducerea mea folosește linkul {{url}}",
    "perms.validOpts": "Te rog să specifici un nivel de permisiuni valid. `--guild, --channel [channel], --role <rol>, --user [utilizator]` sau `--channel [căutare] [--role <căutare>|--user [căutare]]`",
    "perms.invalidNode": "Nod de permisiuni invalid. Execută `perms nodes` pentru o listă validă de noduri."
}
