{
    "general.guildOnly": "只限在伺服器裡使用。",
    "general.unableToDM": "我沒辦法對你發送私人訊息。這可能是因為在你的隱私&安全中關閉了「允許來自伺服器成員的私人訊息」。請把這個選項打開以便接收我給你的私人訊息。",
    "general.forbidden": "我已經嘗試要回覆你的命令，可是我沒有權限。請你讓伺服器管理員給我「發送訊息」的權限。\n\n伺服器︰ `{{guild}}`\n頻道： `{{channel}}`\n命令： `{{cmd}}`\n\n如果你不想要再次看到這些訊息，請在伺服器上執行`settings user dmerrors false`。",
    "general.gatewayFailure": "與閘道聯繫失敗。請稍後再嘗試。",
    "general.cooldown": "哇！太熱門了 - 這命令正在冷卻中。",
    "general.ayanaRoleTooLow": "因為我的最大身分組沒有高過 {{role}} ，所以我不能使用或修改這身分組。請把我設定到比較高的身分組。",
    "general.userRoleTooLow": "因為你的最大身分組沒有比 {{role}} 高，所以你不能使用或修改它。",
    "general.pagination": "頁 {{page}}/{{pages}}",
    "general.targetHigherRole": "{{target}} 比你的身分組還要高。你無法修改它。",
    "general.targetHigherThanAyana": "{{target}} 擁有比我高的身分組。我不能修改它。",
    "general.pagination.invalidPage": "無效頁面。",
    "general.notFound": "無法找到",
    "general.noDiscordPermission": "對不起，我沒有 `{{perm}}` 的Discord權限。",
    "general.pagination.altNavi": "輸入 `<` 和 `>` 來切換頁面。輸入 `p<num>` 來跳到指定的頁數 (ex. `p10`)。",
    "general.pagination.altClose": "輸入 `x` 來關閉此頁面。",
    "general.pagination.perms": "看起來我尚未擁有 `manageMessages` 的Discord權限。如果我有權限的話我會自動刪除頁面切換訊息。",
    "general.banInfo": "你被你曾經在的伺服器禁止了。",
    "general.kickInfo": "你被你曾經在的伺服器踢除了。",
    "general.commandNotFound": "找不到此命令。",
    "general.invalidOpt": "你輸入的選項 `{{opt}}` 無效。請修改你的命令後再試一次。",
    "general.invalidFlag": "你輸入了無效的標誌 `{{flag}}` 。請修改你的命令後再試一次。",
    "general.discordError": "Discord在處理你剛剛的要求時發生問題。請再試一次。 ({{error}})",
    "general.mustBeNumber": "`{{obj}}` 必須是個數字。",
    "general.mustBeNumberSmallerEq": "`{{obj}}` 必須是個小於等於 {{bound}} 的數字。",
    "help.footer": "<> = 必須的訊息， [] = 選擇性的資訊， | = 或. 不要在你的命令中出現 <> [] | 。\n請加入我們的支援伺服器來提問。 ({{prefix}}support for link)",
    "help.cmdForMoreInfo": "執行 `{{cmd}}` 來查看更多有關這命令的資訊。",
    "help.sentToDM": "好的，請查看你的私人訊息。我已經傳送能幫助你的訊息。",
    "help.dmError": "對不起，我無法對你發送能幫助你的私人訊息。請確認你已設定成我可以對你發送私人訊息。",
    "help.fullHelp.header": "{{emoji}}**嗨！我是Ayana！**\n\n你可以在下方看看我可以使用的命令。\n如果你需要幫助的話，您可以加入到我們的[支援伺服器]({{invite}})。\n\n**祝你今天愉快！**",
    "help.fullHelp.info": "**使用 `{{catHelp}}` 來取得更多有關一個分類的資訊。\n使用 `{{cmdHelp}}` 來取得更多有關一個命令的資訊。**\n\n**範例：**\n`{{prefix}}help ayana` 可以看到Ayana分類的概觀。\n`{{prefix}}help music` 可以得到跟音樂命令有關的協助訊息。",
    "help.fullHelp.usefulLinks": "**有用連結：**\n[邀請我]({{invite}}), [最小邀請]({{inviteMin}}), [Ayana目前狀態]({{status}}), [支援伺服器]({{supportInvite}}), [贊助]({{donate}}), [Twitter]({{twitter}}), [Facebook]({{facebook}})",
    "help.aliases.short": "管理命令別名",
    "help.aliases.header": "[別名幫助]",
    "help.aliases.desc.list": "列出在這伺服器上建立的所有別名",
    "help.aliases.desc.rename": "重新命名別名",
    "help.aliases.desc.remove": "刪除別名",
    "help.aliases.desc.userargs": "在這別名執行後，允許或拒絕參數、選項以及標誌加進這別名",
    "help.aliases.group.createAlias": "建立別名",
    "help.aliases.desc.createAlias": "    輸入你要的命令後把 '--addalias <alias>' 加在後面。\n    舉例來說，你想要 '{{prefix}}你好' 當作 '{{prefix}}说你好' 的別名。\n    您必須執行 '{{prefix}}说你好 --addalias hello' 來加上這別名。\n    在您加上別名（除了--addalias）後，選項和標誌也會被保存。",
    "help.afk.short": "當別人提及你的時候，讓別人知道你不在",
    "help.avatar.short": "取得一位使用者的頭像",
    "help.ban.short": "禁止使用者",
    "help.bigtext.short": "產生具有區域指標的文本",
    "help.bigtextd.short": "跟放大字體一樣，而且我會刪除你的命令",
    "help.botlist.short": "從 carbon 取得bot清單",
    "help.channelinfo.short": "取得關於該頻道的訊息",
    "help.clean.short": "我會把我最近發的100則訊息刪除",
    "help.donators.short": "讓Ayana成為可能的贊助者清單",
    "help.f.short": "按下「F」來致敬",
    "help.flipcoin.short": "彈硬幣",
    "help.help.short": "顯示此訊息",
    "help.info.short": "顯示bot資訊",
    "help.invite.short": "讓我加入你的伺服器",
    "help.kick.short": "踢除使用者",
    "help.lenny.short": "( ͡° ͜ʖ ͡°)",
    "help.lewd.short": "那是猥褻！",
    "help.lennyd.short": "與 lenny 一樣，並且我會刪除你的命令",
    "help.linkcheck.short": "使用 www.getlinkinfo.com 來查看此連結會重新導向到哪裡",
    "help.locale.short": "語言設定界面",
    "help.modlog.short": "ModLog 設定界面",
    "help.music.short": "音樂播放器",
    "help.music.header": "[音樂幫助]",
    "help.music.desc.queue": "顯示正在播放的清單或是再加入 一首歌/一份播放清單",
    "help.music.desc.enqueue": "加入 一首歌/一份播放清單",
    "help.music.desc.enqueueNext": "排入下 一首歌/一份播放清單",
    "help.music.desc.purge": "刪除播放清單內所有項目",
    "help.music.desc.delete": "刪除播放清單內一至多個項目",
    "help.music.desc.play": "播放或是加入 一首歌/一份播放清單 後直接播放",
    "help.music.desc.skip": "跳過/刪除 播放清單裡的第一個項目",
    "help.music.desc.shuffle": "隨機播放清單",
    "help.music.desc.repeat": "管理播放清單內重複",
    "help.music.desc.providers": "顯示可用提供商清單",
    "help.music.desc.join": "加入你所在的語音頻道",
    "help.music.desc.leave": "離開語音頻道",
    "help.music.desc.bindVoice": "指定我需要加入的語音頻道",
    "help.music.desc.bindText": "指定我所綁定的文字頻道",
    "help.music.desc.selectRegion": "強制連接到指定區域",
    "help.perms.short": "權限控制界面",
    "help.perms.header": "[權限幫助]",
    "help.perms.desc.allow": "允許的權限節點（使用下方選項其一）",
    "help.perms.desc.default": "預設的權限節點（使用下方的選項其一）",
    "help.perms.desc.deny": "拒絕的權限節點（使用下方的選項其一）",
    "help.perms.desc.show": "顯示權限（使用下方的選項其一）",
    "help.perms.desc.nodes": "列出權限清單",
    "help.perms.desc.channelUser": "設定或顯示使用者在頻道的權限",
    "help.perms.desc.channelRole": "設定或顯示身分組在頻道的權限",
    "help.perms.desc.channel": "設定或顯示頻道的權限",
    "help.perms.desc.user": "設定或顯示使用者的權限",
    "help.perms.desc.role": "設定或顯示身分組的權限",
    "help.perms.desc.guild": "設定或查看伺服器權限",
    "help.perms.desc.note": "    這些權限是在這些選項的指揮下，也就是說頻道上的使用者\n    擁有最高等級且伺服器擁有最低等級。",
    "help.pick.short": "當你無法下決定時，讓我來幫助你",
    "help.ping.short": "乒 乓",
    "help.prefix.short": "確認bot的前綴命令",
    "help.pro.short": "Ayana PRO 管理",
    "help.pro.header": "[Ayana PRO 幫助]",
    "help.pro.desc.upgrade": "升級此伺服器的Ayana至Ayana PRO",
    "help.pro.desc.downgrade": "把一個伺服器或是一位使用者的ID從Ayana PRO降級",
    "help.prune.short": "訊息修整",
    "help.prune.header": "[修整幫助]",
    "help.prune.desc.prune": "修整指定區塊的訊息",
    "help.prune.desc.pruneUntil": "在到達指定訊息以前做訊息修整",
    "help.prune.desc.bots": "修整所有Bot建立的訊息",
    "help.prune.desc.user": "修整指定使用者的訊息",
    "help.prune.desc.filter": "只修整包含指定文句的訊息",
    "help.prune.desc.attachments": "只修整具有附件的訊息（可以與 --embeds 整合）",
    "help.prune.desc.embeds": "只修整包含指定嵌入訊息的訊息（可以與 --attachments 一起使用）",
    "help.prune.desc.pinned": "也修整被釘選的訊息（預設是不會被修整）",
    "help.prune.desc.invites": "只修整被Discord邀請訊息",
    "help.prune.desc.reactions": "只刪除目標訊息的所有反應來取代刪除該訊息",
    "help.prune.desc.system": "只刪除系統訊息 (忽略 -a, -e, -p, -i 和 -r)",
    "help.prune.desc.silent": "不在結尾印出修整後的結果",
    "help.random.short": "隨機數字產生器",
    "help.reminder.short": "讓我提醒你",
    "help.reminder.header": "[提醒幫助]",
    "help.reminder.desc.add": "新增一則提醒",
    "help.reminder.desc.remove": "使用搜尋或是ID來刪除提醒",
    "help.reminder.desc.list": "顯示提醒清單",
    "help.role.short": "給予、撤銷或修改用戶組",
    "help.role.header": "[身分組幫助]",
    "help.role.desc.give": "給予用戶組",
    "help.role.desc.take": "撤銷用戶組",
    "help.role.desc.modify": "修改身分組",
    "help.role.options.giveTake": "給予或撤銷身分組的選項",
    "help.role.desc.bots": "只改變bot的用戶組",
    "help.role.desc.users": "只更改使用者所在的用戶組",
    "help.role.desc.user": "只更改指定使用者所在的用戶組",
    "weebsh.noType": "無法在 weeb.sh 上找到該類型。",
    "weebsh.fail": "無法從 weeb.sh 上取得有關 `{{type}}` 的圖片 :< 你可以再試一次。",
    "weebsh.noTypes": "目前 weeb.sh 的所有種類還沒讀取完畢。請稍等一下。",
    "aliases.newName": "新的名字",
    "bigtext.outputTooLarge": "糟糕！輸出訊息的最大字數已經超出2000個字！",
    "finder.failUser": "找不到任何符合的使用者。",
    "finder.failRole": "找不到任何符合的身分組。",
    "finder.failChannel": "找不到任何符合的頻道。",
    "finder.headerRole": "請選擇你想要使用的身分組",
    "help.role.options.modify": "身分組可修改的選項",
    "help.role.desc.name": "重新命名身分組",
    "help.role.desc.color": "改變身分組的顏色",
    "help.role.desc.moveAfter": "將身分組設定在目標身分組之後",
    "help.roleinfo.short": "取得有關於此身分組之資訊",
    "help.rolemembers.short": "列出此身分組下所有使用者",
    "finder.headerRoleCSV": "在具有 `{{search}}` 關鍵字之下，請選出一個身分組",
    "finder.skippingRole": "跳過具有 `{{search}}` 的身分組",
    "perms.validOpts": "請指定一個有效的權限等級。 `--guild, --channel [頻道], --role <身分組>, --user [使用者]` 或 `--channel [關鍵字] [--role <關鍵字>|--user [關鍵字]]`",
    "perms.roleRequired": "需要指定一身分組才能有身分組選項。",
    "perms.showChannelRole": "顯示在頻道 `{{cname}}` 上 `{{rname}}` 身分組的權限",
    "perms.showRole": "顯示 `{{name}}` 身分組的權限",
    "perms.allowChannelRole": "授予 `{{rname}}` 身分組在 `{{cname}}` 頻道上的 `{{node}}` 權限",
    "perms.denyChannelRole": "撤銷 `{{rname}}` 身分組在 `{{cname}}` 頻道上的 `{{node}}` 權限",
    "perms.defaultChannelRole": "默認 `{{rname}}` 身分組在 `{{cname}}` 頻道上的 `{{node}}` 權限",
    "perms.allowRole": "授予`{{name}}` 身分組 `{{node}}` 的權限",
    "perms.denyRole": "撤銷`{{name}}` 身分組 `{{node}}` 的權限",
    "perms.defaultRole": "默認 `{{name}}` 身分組 `{{node}}` 的權限",
    "perms.allowUser": "授予 `{{name}}` 使用者 `{{node}}` 的權限",
    "perms.denyUser": "撤銷 `{{name}}` 使用者 `{{node}}` 的權限",
    "perms.defaultUser": "默認 `{{name}}` 使用者 `{{node}}` 的權限",
    "perms.legend": ":heavy_check_mark: => 預設允許 :heavy_multiplication_x: => 預設拒絕 :white_check_mark: => 允許 :no_entry: => 拒絕",
    "general.error": "發生錯誤。如果你需要更多幫助，請回報到我們的支援伺服器（使用 `support` 命令來獲得邀請）\n```{{error}}```",
    "help.fortune.short": "幸運籤餅訊息",
    "help.pro.desc.redeem": "兌換一組Ayana PRO金鑰",
    "help.role.desc.note": "    這命令無法讓你去允許、撤銷或修改身分組\n    因為該身分組比Ayana最高的身分組相等或更高。",
    "help.sar.short": "自我分配身分組的設定界面",
    "help.sar.header": "[自我分配身分組（SAR）幫助]",
    "help.sar.desc.help": "顯示這則協助訊息",
    "help.sar.desc.create": "建立一個SAR群組",
    "help.sar.desc.delete": "刪除一個SAR群組",
    "help.sar.desc.rename": "重新命名一個SAR群組",
    "help.sar.desc.groups": "列出所有SAR群組",
    "help.sar.groupModification": "群組修改",
    "help.sar.desc.active": "啟用或停用這群組",
    "help.sar.desc.reqrole": "如果一個使用者需要使用這群組，設定此身分組給他",
    "help.sar.desc.max": "對來自此群組的使用者設定可擁有之最多身分組",
    "help.sar.desc.rolesAdd": "將此群組加入一個身分組",
    "help.sar.desc.rolesRemove": "將此群組移除一個身分組",
    "help.sar.desc.default": "設置或取消預設的群組",
    "help.say.short": "讓我說點話",
    "help.sayd.short": "與say一樣，並且刪除你的命令",
    "help.serverinfo.short": "取得有關此伺服器的資訊",
    "help.settings.short": "設定控制界面",
    "help.shrug.short": "¯\\_(ツ)_/¯",
    "help.sumfuk.short": "想嘿咻嗎？",
    "help.shrugd.short": "與shrug一樣，並且我會刪除你的命令",
    "help.support.short": "支援伺服器的連結",
    "help.urban.short": "從 urbandictionary.com 上查詢一個字詞",
    "help.userinfo.short": "取得有關一位使用者的資訊",
    "help.blush.short": "臉紅的人物圖片",
    "help.confused.short": "動畫中女孩子的困惑圖片",
    "help.hug.short": "有關擁抱的圖片，也可以讓你去擁抱一下你的朋友",
    "perms.allowChannelUser": "授予使用者 `{{uname}}` 在頻道 `{{cname}}` 上的 `{{node}}` 權限",
    "perms.denyChannelUser": "撤銷使用者 `{{uname}}` 在頻道 `{{cname}}` 的 `{{node}}` 權限",
    "perms.showUser": "顯示使用者 `{{name}}` 的權限",
    "perms.allowGuild": "授予在其他伺服器 `{{node}}` 的權限",
    "perms.denyGuild": "撤銷在其他伺服器 `{{node}}` 的權限",
    "perms.defaultGuild": "默認在其他伺服器 `{{node}}` 的權限",
    "perms.allowChannel": "授予 `{{name}}` 頻道 `{{node}}` 的權限",
    "perms.denyChannel": "撤銷 `{{name}}` 頻道 `{{node}}` 的權限",
    "perms.defaultChannel": "默認 `{{name}}` 頻道 `{{node}}` 的權限",
    "perms.defaultChannelUser": "默認使用者 `{{uname}}` 在頻道 `{{cname}}` 的 `{{node}}` 權限",
    "perms.addon": "你可以在 {{url}} 找到更詳細的協助資訊",
    "pick.inputTooLarge": "我可以選擇的選項輸入太多了。",
    "pick.picked": "我的選擇是 {{option}}",
    "prefix.text": "這伺服器的命令前缀是 `{{prefix}}` 。",
    "pro.upgraded": "Ayana PRO 已經於此伺服器開放使用。\n請使用此連結邀請她： {{invite}}",
    "pro.downgraded": "此伺服器不能再使用Ayana PRO了。",
    "pro.processingError": "在連接至訂閱服務時出現了一些問題。",
    "pro.noSubscriptions": "你沒有任何PRO訂閱。你可以藉由在Patreon上支援Ayana來取得Ayana PRO。",
    "pro.alreadyUpgraded": "Ayana PRO已經對此伺服器開放。\n要完成設定的話，請透過 {{invite}} 來邀請Ayana PRO",
    "pro.cannotUpgradeMore": "因為你已經使用完你的升級額度，所以你不能將此伺服器升級至Ayana PRO。",
    "pro.notUpgraded": "此伺服器尚未升級至Ayana PRO。",
    "pro.upgradePromo": "你必須要有Ayana PRO才能使用此功能。",
    "pro.noPatreon": "你必須在Patreon上支援Ayana才能更新你的捐款文本。",
    "pro.pledgeTooLow": "你的Patreon贊助承諾太低，我們無法更新你的捐贈文本。",
    "pro.donatorTextNotSet": "你沒有設定任何捐贈者文本，所以我們無法更新。",
    "pro.guildNotPro": "請將此伺服器升級至Ayana PRO來取得此功能。想要更多資訊請執行 `pro` 命令。",
    "pro.instanceNotPro": "此功能僅限於Ayana PRO才能使用。請在執行 `pro upgrade`後，依據接下來的說明來邀請她進入你的伺服器。",
    "pro.noPublicUpgrades": "此伺服器不允許公開的Ayana PRO升級。請執行 `settings guild publicupgrades` 。",
    "pro.cannotDowngrade": "只有此伺服器管理員或是對此伺服器升級Ayana PRO的使用者可以降級。",
    "pro.description": "Ayana PRO是一個私人架設的bot，專屬於在Patreon上支援Ayana的贊助者。\n你可以獲得更多好處，例如更高質量的音樂品質，更少的停機時間，更穩定以及專業級的服務。\n\n想了解更多或是取得Ayana PRO的話請點此連結 {{uri}}。",
    "pro.noData": "你沒有任何Ayana PRO贊助。請執行 `pro` 命令以了解更多資訊。",
    "pro.disabled": "Ayana PRO目前在此Ayana被禁用。",
    "pro.redeemingKey": "兌換你的金鑰中... 請稍候。",
    "pro.enterKey": "請輸入你要兌換的金鑰。",
    "pro.invalidKey": "你輸入的金鑰為無效。",
    "pro.keyAlreadyUsed": "你輸入的金鑰已經被人使用。",
    "pro.keyNotFound": "你輸入的金鑰沒有被找到。你今天還有 {{triesLeft}} 次嘗試的機會。",
    "pro.noTries": "你今天已經沒有任何嘗試機會。請等待明天。",
    "pro.keyReloadError": "你的金鑰已經兌換成功，但在重新整理的時候出現了問題。所以在收到你的訂閱結果前需要一點時間。",
    "pro.redeemError": "在嘗試兌換你的金鑰過程中出現了問題。",
    "pro.redeemSuccess": "成功了！你的金鑰已兌換完成。你可以藉由輸入 `pro status` 來確認你的訂閱狀況，而且輸入 `pro upgrade` 命令可以讓你升級。",
    "pro.guildCheck": "此伺服器已經在 `{{on}}` 被 `{{by}}` 升級 （{{ago}} ago）。",
    "prune.missingPerms": "對不起，我沒有 `管理訊息` 的Discord權限。",
    "prune.invalidAmount": "你輸入的數量為無效。",
    "prune.userHelp": "在用戶選項中，你必須輸入關鍵字來進行檢索。",
    "prune.tooManyOptions": "你的命令上使用過多的選項（ `--all, --user, --bots` ），請刪減成一個選項",
    "prune.deleteQuestion": "所有跟你要求符合的訊息將會永遠刪除。你確定要繼續嗎？ （y / n）",
    "prune.fetchFail": "取得訊息失敗。請再試一次。",
    "prune.filterHelp": "你必須輸入關鍵字來篩選。",
    "prune.results": "修整結果",
    "prune.totalMsgsDeleted": "已刪除的訊息數量",
    "prune.oldMsgsDeleted": "舊的訊息已刪除",
    "prune.oldMsgsNotDeleted": "舊的訊息並沒有刪除",
    "prune.deletedByUser": "訊息已被使用者刪除",
    "prune.alreadyPruning": "已經有人在此頻道執行修整命令！請等待上個命令完成。",
    "prune.autodelInfo": "自動刪除功能已經開啟。此訊息將會在10秒後被刪除。輸入 'c' 來取消刪除行為。",
    "prune.autodelCancelled": "自動刪除已經被中止。",
    "prune.untilMessageNotFound": "無法在此頻道找到使用 `--until` 選項的訊息。",
    "prune.statusFetching": "正在獲取 {{amount}} 則訊息... 這需要一點時間。",
    "prune.statusDeleting": "正在刪除 {{amount}} 則訊息... 這需要一點時間。",
    "prune.statusRemovingReactions": "正在刪除 {{amount}} 則訊息內的所有表情符號... 這需要一點時間。",
    "prune.doneProcessing": "完成！以下顯示修整結果。",
    "prune.totalMsgsScanned": "已掃描訊息總數",
    "prune.totalMsgsReactionsRemoved": "已移除表情符號的訊息總數",
    "prune.removedByUser": "已被使用者移除表情符號的訊息",
    "random.upperBound": "上限",
    "random.lowerBound": "下限",
    "random.noNumber": "給定的參數至少一個不是數字。",
    "random.numberTooLarge": "給定的數字其中一個過大。最大只能到 {{max}} 。",
    "random.lowerBoundTooLarge": "下限不能大於上限。",
    "random.result": "你的亂數結果是  {{number}} 。",
    "role.noRoleSpecified": "你尚未指定一個需要給予或撤銷的身分組。",
    "role.tooManyOptions": "下列的選項你使用了超過一個無效選項 `--all, --user <user>, --users, --bots` 。",
    "role.specifyUser": "在使用 `--user <user>` 時你必須指定使用者名稱。",
    "role.cannotUseInroleNotinrole": "你不能將 `--inrole`、 `--notinrole` 還有 `--noroles` 組合一起使用。",
    "role.specifyAdditionalRole": "在使用 `--inrole` 或 `--notinrole` 時你必須指定一個額外的身分組。",
    "role.noOptionsSpecified": "你尚未指定任何選項。請參閱此命令的詳細協助資訊。",
    "role.mainRoleHeader": "請選擇將用來給予或撤銷的身分組（搜尋： `{{search}}` ）",
    "role.secondaryRoleHeader": "請選擇一個在 `--inrole` 或 `--notinrole` 指定之下的身分組（搜尋： `{{search}}` ）",
    "role.pleaseWait": "請等待我處理你的要求。輸入`{{prefix}} role cancel` 來取消此進程。（已處理的使用者： {{usersProcessed}} ）",
    "role.maximumReached": "你的要求已經超出最大100位使用者身分組變更。",
    "role.alreadyProcessing": "我已經在這伺服器處理一則分身組要求。",
    "role.doneProcessing": "完成！已修改了 {{amount}} 個使用者的身分組。",
    "role.userHeader": "請選擇一個與 `{{search}}` 有關的使用者",
    "role.statusMessageDeleted": "狀態訊息被刪除了。此進程將會被中止。",
    "role.invalidHexCode": "你並沒有使用有效的十六進位碼。例如 #F4C 和 #F77800 都是有效的十六進位碼。",
    "role.modified": "身分組 `{{role}}` 已經被修改。",
    "role.notProcessing": "沒有任何有關身分組的要求正在進行。",
    "role.cancelled": "有關身分組的要求已被取消。",
    "role.moveAfterOptError": "請指定一個需要移動到後面的身分組。",
    "sar.groupNotFound": "找不到群組 `{{group}}` 。",
    "sar.groupInactive": "群組 `{{group}}` 閒置中。",
    "sar.reqRoleNotOwned": "使用此群組前你必須具有身分組 `{{role}}` 。",
    "sar.groupNoRoles": "群組 `{{group}}` 沒有分配任何身分組。",
    "sar.assign": "分配： {{role}}",
    "sar.unassign": "取消分配： {{role}}",
    "sar.pick": "選擇一個你想要分配給自己或取消分配給自己的身分組",
    "sar.assigned": "你已經指派身分組 `{{role}}` 給你自己了。",
    "sar.unassigned": "你已經取消指派身分組 `{{role}}` 給你自己了。",
    "sar.action.active": "使用者應該被分配這群組裡的身分組嗎？",
    "sar.pickGroup": "選擇一個你想要分配或取消分配的身分組來源群組。",
    "sar.noActiveGroups": "沒有啟用的群組 :(",
    "sar.noGroups": "沒有群組 :(",
    "sar.action.max": "已經達到該群組最大的身分組分配數量。如果想要無限制身分組數量，請將此設定成0。",
    "help.bad.short": "有關角色行為不好的圖",
    "sar.rolesAlreadyAdded": "已經將一些身分組 `{{role}}` 添加進去了。",
    "sar.rolesNotInGroup": "有一些身分組 `{{role}}` 並不在此群組。",
    "sar.roleAlreadyAdded": "已經將此身分組 `{{role}}` 添加進去了。",
    "sar.roleNotInGroup": "此身分組 `{{role}}` 並不在此群組。",
    "sar.rolesHelp": "使用`{{prefix}}sar <group> roles <add|remove> <role>` 來對群組添加或刪除身分組。",
    "sar.action.reqrole": "身分組內的使用者必須使用過群組。使用身分組 `everyone` 來移除必須的身分組。",
    "settings.list.delnomatch": "找不到任何可刪除項目。",
    "sar.groupAlreadyCreated": "群組 `{{group}}` 已經被建立了。",
    "sar.groupCreated": "群組 `{{group}}` 已建立。",
    "sar.groupDeleted": "群組 `{{group}}` 已被刪除。",
    "sar.groupRenamed": "群組 `{{group}}` 已經被命名為 `{{newGroup}}` 。",
    "sar.cannotCreateMoreGroups": "你不能建立超過 {{amnt}} 個群組。",
    "sar.cannotAddMoreRoles": "你不能在一個群組內添加超過 {{amnt}} 個身分組。",
    "sar.checkHelp": "你輸入的命令無效。請使用 `{{prefix}}sar help` 來尋求協助。",
    "aliases.empty": "這伺服器上沒有任何別稱。請執行 `aliases` （不添加任何參數）來取得協助。",
    "invite.patreon": "Ayana Patreon是一個獨家特典，只有在Ayana的patreon上才有！\n如果你想要在幫忙支付Ayana帳單中獲得一些優質的特典，那麼請考慮捐款 :heart: ！\n\n{{patreon}}",
    "locale.invalidLocale": "`{{input}}` 是一個無法識別的語系。請執行 `locale list` 來取得有效的語系選項清單。\n或者，如果你願意協助我翻譯成你慣用的語言的話，請拜訪 {{url}}",
    "locale.current": "```css\n當前設定\n  伺服器: {{guild}}\n  使用者: {{user}}```\n{{help}}\n如果你願意協助我翻譯成你慣用的語言的話，請拜訪 {{url}}",
    "sar.noDefaultGroup": "目前沒有設定預設的群組。請使用 `{{prefix}}sar help` 來取得協助。",
    "settings.guild.dmhelp": "開啟/關閉 傳送私人協助訊息。",
    "music3.autoLeave": ":no_entry_sign: 因為沒有任何下一步動作，所以我離開此語音群組。你可以透過支援Ayana來取得更優質的特典以及Ayana PRO。 {{uri}}",
    "sar.changed": "將群組 `{{group}}` 的  `{{action}}` 改成 `{{value}}` 。",
    "sar.cannotUseReserved": "你不能使用此保留字作為群組名稱。",
    "sar.setDefault": "設定群組  `{{group}}` 作為預設群組。",
    "sar.reqRole": "必要的身分組",
    "sar.maxRoles": "可設定的最大身分組數量",
    "sar.noLimit": "無限制",
    "sar.createHelp": "使用 `{{prefix}}sar create <group>`去建立一個群組。",
    "sar.assignmentInterface": "透過 `{{prefix}}rank [group]` 來使用SAR分配界面。",
    "words.amount": "總計",
    "words.key": "關鍵",
    "words.guildID": "伺服器ID",
    "words.note": "注意",
    "words.options": "選項",
    "words.option": "選項",
    "words.message": "訊息",
    "words.messageID": "訊息ID",
    "words.examples": "範例",
    "words.search": "搜尋",
    "words.filter": "篩選",
    "words.boolean": "布林",
    "words.number": "數",
    "words.usage": "用法",
    "words.text": "文本",
    "words.command": "命令",
    "words.category": "分類",
    "words.user": "使用者",
    "words.role": "身分組",
    "words.roles": "身分組",
    "words.channel": "頻道",
    "words.channels": "頻道",
    "words.group": "群組",
    "words.groups": "群組",
    "words.guild": "伺服器",
    "words.guilds": "伺服器",
    "words.version": "版本",
    "words.website": "網站",
    "words.author": "作者",
    "words.active": "啟用",
    "words.library": "函式庫",
    "words.developers": "開發者",
    "words.donate": "捐款",
    "words.member": "成員",
    "words.members": "成員",
    "words.id": "ID",
    "words.region": "區域",
    "words.owner": "擁有者",
    "words.created": "創建於",
    "words.joined": "加入於",
    "words.icon": "圖示",
    "words.avatar": "頭像",
    "words.cancel": "取消",
    "words.nickname": "暱稱",
    "words.playing": "正在玩",
    "words.status": "狀態",
    "words.streams": "串流",
    "words.error": "錯誤",
    "words.yes": "是",
    "words.no": "否",
    "words.position": "位置",
    "words.color": "顏色",
    "words.hoist": "是否分開顯示",
    "words.managed": "自動管理",
    "words.mentionable": "可提及",
    "words.permissions": "權限",
    "words.users": "使用者",
    "words.topic": "主題",
    "words.twitter": "Twitter",
    "words.mention": "提及",
    "words.type": "類別",
    "words.value": "值",
    "words.default": "預設",
    "words.description": "描述",
    "words.variables": "變數",
    "words.providers": "提供者",
    "words.container": "容器",
    "words.gatewayVersion": "Ayana閘道",
    "words.shard": "碎片",
    "words.donators": "捐贈者",
    "words.directlink": "直接連結",
    "words.contributors": "貢獻者",
    "words.arguments": "參數",
    "words.delete": "刪除",
    "words.uptime": "持續時間",
    "words.alias": "別名",
    "words.aliases": "別名",
    "words.name": "名稱",
    "words.reason": "理由",
    "words.page": "頁",
    "words.locale": "語系",
    "words.word": "字",
    "words.queue": "佇列",
    "words.voiceChannel": "語音頻道",
    "words.textChannel": "文字頻道",
    "words.playlist": "播放清單",
    "words.song": "歌曲",
    "actionlog.newChannel": "新頻道",
    "actionlog.oldChannel": "舊頻道",
    "rolemembers.header": "身分組 {{role}} 內的成員",
    "ban.missingUser": "使用者參數未指定。",
    "ban.softHackban": "軟BAN和硬BAN不能同時執行。",
    "ban.invalidDays": "指定的天數並非有效整數。",
    "ban.hackbanUserID": "硬BAN需要使用者ID。",
    "ban.failed": "對不起，我無法BAN掉這位使用者。或許是我缺少必要的權限？",
    "ban.softFailed": "在執行軟BAN的時候發生錯誤，使用者已經被BAN但我無法解BAN。請手動將這位使用者解BAN。",
    "ban.days": "天數",
    "modlog.requireReason": "管理紀錄已開啟。在執行管理命令時必須加入 `--reason` 參數。",
    "botlist.fetchFailed": "在嘗試從 {{provider}} 中取得BOT清單時發生錯誤。",
    "support.text": "如果需要有關Ayana的支援、建議或是回報bug的可以加入我們的支援伺服器。 {{support}}",
    "kick.failed": "對不起，我無法將此使用者踢除。或許是我缺少權限？",
    "linkcheck.headerRedirects": "[重新導向]",
    "linkcheck.error": "連結確認失敗。",
    "linkcheck.pleaseWait": "正在確認此連結是否為釣魚連結，請稍候。",
    "ping.pong": "乓！ {{ms}}",
    "settings.failedUpdate": "在嘗試更新設定時發生錯誤。",
    "settings.invalidInput": "原本預期的設定是 `{{type}}` ，但我得到的卻是 `{{input}}` 。",
    "settings.set": "已將 **{{setting}}** 設為 `{{value}}` 。",
    "settings.notset": "尚未設定",
    "settings.userHelp": "以下是你的使用者設定。\n如果想要更詳細的資訊，請執行 `settings user [setting]`",
    "settings.groupsHelp": "這是一個可設置的群組列表。\n執行 `settings user` 可查看使用者設定。\n執行 `settings [groupName]` 可以獲得更多資訊。",
    "settings.unknownGroup": "未知設定群組[**{{input}}**]()。",
    "settings.groupHelp": "[**{{group}}**]()裡的設定\n如果需要更多資訊以及查看有關變數，請輸入`settings {{group}} [settingName]` 。",
    "settings.unknownSetting": "未知設定[**{{setting}}**]()（群組：[**{{group}}**]()）。",
    "settings.active": "啟用/停用",
    "settings.prefix.guild": "此伺服器的命令前綴。",
    "settings.greeting.text": "歡迎訊息。",
    "settings.greeting.channel": "歡迎新成員的頻道。",
    "settings.greeting.dm": "使用私人訊息來取代歡迎頻道？",
    "settings.farewell.text": "告別訊息。",
    "settings.farewell.channel": "用來告別成員離開的頻道。",
    "settings.farewell.dm": "使用私人訊息來取代告別頻道？",
    "settings.modlog.channel": "紀錄管理員動作的頻道。",
    "settings.automod.channel": "Automod用來紀錄的頻道。",
    "settings.automod.log": "啟用/停用 Automod的紀錄。",
    "settings.automod.links": "啟用/停用 連結篩選。",
    "settings.automod.linksbl": "連結黑名單。",
    "settings.list.help": "使用方法： `settings {{group}} {{setting}} [add | del] [item]`",
    "settings.guild.dmerrors": "啟用/停用 伺服器端的私人訊息錯誤。",
    "settings.list.delconfirm": "以下項目將會被刪除。這樣可以嗎？[y/n]:\n```{{items}}```",
    "settings.variable.mention": "提及使用者。",
    "settings.variable.username": "成員使用者名稱。",
    "settings.variable.userid": "成員使用者ID。",
    "settings.autodel.prune": "刪除十秒後所有自動產生訊息？",
    "settings.autorole.role": "此身分組應該被自動用戶組指派",
    "settings.actionlog.channel": "用於紀錄行為的頻道。",
    "settings.guild.dmbans": "啟用/停用 關於BAN或踢除伺服器端的私人訊息。",
    "settings.guild.afk": "啟用/停用 伺服器端閒置訊息。",
    "settings.failedUpdateAutorole": "此身分組無法被 autorole 使用，因為他高於你目前最高的身分組。",
    "settings.guild.publicupgrades": "允許在伺服器上的任何人將Ayana升級至Ayana PRO。只有管理員以及升級者可以降級。",
    "avatar.resolveFailed": "嘗試取得頭像時發生錯誤。",
    "translation.nativeName": "繁體中文",
    "translation.englishName": "Traditional Chinese",
    "channelinfo.pinned": "釘選訊息",
    "channelinfo.type": "頻道種類",
    "channelinfo.text": "文本",
    "channelinfo.voice": "語音",
    "channelinfo.bitrate": "語音位元率",
    "channelinfo.connected": "已連接使用者",
    "channelinfo.overwrite": "權限覆蓋",
    "music2.join": ":white_check_mark: 已加入並常駐在 :speaker: `{{voice}}` 與 :newspaper: `{{text}}`。",
    "music2.rebound": ":white_check_mark: 後端斷線後繼續播放音樂。",
    "music2.userNoChannel": "你目前不在任何一個語音頻道中，請進入任何一個語音頻道。",
    "music2.leave": ":no_entry: 離開並解除常駐頻道。如果你覺得使用Ayana是一種享受，請考慮幫助我們並讓我們繼續發光發熱 <https://ayana.io/donate>！",
    "music2.nowplaying": ":notes: 目前播放： `{{title}}` （ 點播者： `{{requester}}` ）。",
    "music2.enqueued": "已加入 `{{title}}` 到列表裡的位置 **{{position}}** 。輸入 `music play` 來開始播放列表。",
    "music2.enqueuedPlaylist": "已從`{{title}}`加入`{{items}}`首歌曲到佇列裡。輸入`music play`來播放清單。",
    "music2.alreadyBound": "已經連接並綁定頻道。",
    "music2.notBound": "尚未綁定任何頻道。",
    "music2.queuePurged": "佇列已被清除。",
    "music2.queueItemDeleted": "已從佇刪除了 `{{item}}` 。",
    "music2.headerSearch": "[搜尋結果]",
    "music2.pickOption": "請從以下選項擇一排入佇列。",
    "music2.emptyQueue": "看起來這裡沒有人…",
    "music2.headerQueue": "[音樂佇列]",
    "music2.queueShuffled": ":twisted_rightwards_arrows:佇列已隨機。",
    "music2.skipped": ":fast_forward: 已跳過 `{{item}}`.",
    "music2.skipEmpty": "佇列為空。沒有任何可以跳過的。",
    "music2.autoPaused": ":pause_button: 因為此頻道沒有收聽者，所以已經暫停播放。",
    "music2.autoResumed": ":play_pause: 已繼續播放。",
    "music2.autoLeave": ":no_entry_sign: 因為閒置所以離開頻道。如果你覺得使用Ayana是一種享受，請考慮幫助我們並讓我們繼續發光發熱 <https://ayana.io/donate>！",
    "music2.tooLong": "因為 musicv3 系統的變更後，你**暫時**不能播放超過三小時的歌曲。",
    "music2.showQueueMore": "在 {{size}} 以上（含）",
    "music2.playfailed": ":no_entry_sign: 此歌曲 `{{title}}` 因為一個錯誤導致無法播放。跳過中...",
    "music2.delete.fuzzyNoMatches": "佇列上沒有任何符合你要求的項目。",
    "music2.delete.fuzzyExcessMatches": "符合你要求的項目過多。請嘗試刪減部份要求或是使用更具體的要求。",
    "music2.delete.confirm": "以下項目將會被刪除。這樣可以嗎 [y/n]:\n```{{items}}```",
    "music2.delete.items": "刪除佇列中的項目  `{{items}}`  。",
    "music2.delete.queueEmpty": "佇列為空，沒有任何可刪除的。",
    "music2.delete.invalidIndex": "你要求的索引無效。請再試一次。",
    "music2.queue.maxsize": "你已經超出佇列最大允許數量（最多允許 1000 筆項目）。",
    "music2.provider.unknown": "未知的提供者。請執行 `music pv`來取得有效的提供者清單。",
    "music3.join": ":white_check_mark: 已加入並常駐在 :speaker: `{{voice}}` 與 :newspaper: `{{text}}`。",
    "music3.leave": ":no_entry: 離開並解除綁定。",
    "music3.alreadyConnecting": "我正在連線至此伺服器。請等我完成後再試一次。",
    "music3.noNodes": "目前在此地區 `{{region}}` 沒有任何音樂節點。請嘗試其他地區。",
    "music3.nowplaying": "正在播放： {{title}}",
    "music3.skip": ":fast_forward: 已跳過 [{{title}}]({{uri}})。",
    "music3.deletedMultiple": "從佇列刪除 `{{count}}` 筆項目。",
    "music3.enqueued.playFooter": "執行 'music play' 來播放佇列。",
    "music3.enqueued": "將 `{{title}}` 排到第 **{{position}}** 個位置",
    "music3.enqueuedPlaylist": "從 `{{title}}` 將  `{{count}}` 首歌排入佇列",
    "music3.queueUri": "[瀏覽 ayana.io]({{uri}})",
    "music3.repeat.one": ":repeat_one: 重複單一項目",
    "music3.repeat.on": ":repeat: 重複其他佇列",
    "music3.repeat.off": ":no_entry: 停用重複",
    "music3.repeat.specifyMode": "請指定重複的行為模式： <on|one|off>",
    "music3.skipEmpty": "佇列為空。沒有任何可以跳過的。",
    "music3.playEmpty": "佇列為空，加點歌曲吧！",
    "music3.deleteEmpty": "佇列為空，沒有什麼可以刪除的！",
    "music3.alreadySkipping": "一則跳過要求已經被進入處理程序。請注意：如果你想清除佇列可以使用 `music purge` 。",
    "music3.autoLeaveNoPromo": ":no_entry_sign: 因為沒有任何下一步動作，所以我離開此語音群組。感謝你使用 Ayana！",
    "music3.invalidIndex": "你指定了錯誤的索引。請再試一次。",
    "music3.voiceOptError": "請在 `--voice` 選項中包含一個語音頻道。",
    "music3.textOptError": "請在 `--text` 選項中包含一個文字頻道。",
    "music3.regionOptError": "請在 `--region` 選項中包含一個有效的區域。",
    "setgame.fail": "無法設定正在玩的遊戲。 {{error}}",
    "setgame.streambool": "必須指定串流URL。",
    "setgame.done": "遊戲狀態已設定！",
    "music.providers.youtube": "可選擇在 https://www.youtube.com 上的影片或是非私人的播放清單。",
    "music.providers.soundcloud": "可選擇在 https://www.soundcloud.com 上的歌曲或是播放清單。",
    "music.providers.listenmoe": "從 https://listen.moe 上收聽廣播串流。",
    "music.providers.clyp": "在 http://clyp.it 上收聽歌曲。",
    "music.providers.twitch": "在 https://twitch.tv 上收聽實況。",
    "music.songNameYt": "歌曲名（YT）",
    "providers.twitch.channelNotStreaming": "此頻道 `{{chnl}}` 目前沒有實況。",
    "f.paid": "**{{username}}** 已經表達了他的敬意。",
    "f.paidfor": "**{{username}}** 已經對 **{{type}}** 表達了他的敬意。",
    "f.paidfooter": "今天：{{today}}\n合計：{{all}}",
    "f.paidstats": "今天已經有 **{{today}}** 人次表達了敬意。總共有 **{{all}}** 人次經表達了敬意。",
    "reminder.reminderString": "提醒文句（請參照範例）",
    "reminder.parseFailed": "無法辨識你所指定的時間。",
    "reminder.invalidDuration": "請至少指定一個超過兩分鐘以上的時間。",
    "reminder.gatewayFailure": "無法與閘道連接。請稍後再試一次。",
    "reminder.list.none": "目前你沒有任何提醒。",
    "reminder.delete.confirm": "以下項目將會被刪除。這樣可以嗎 [y/n]:\n```{{items}}```",
    "reminder.created": "好的我待會會提醒你！",
    "reminder.delete.nomatches": "你的提醒中沒有一個與你所要求一致的結果。",
    "reminder.delete.done": "提醒已刪除。",
    "reminder.dm": "你要求我要提醒你關於這件事情。\n{{reminder}}",
    "events.processingError": "連接到活動服務時發生了問題。",
    "donators.none": "無法找到任何贊助者。",
    "question.timeout": "該問題已超時。",
    "question.cancelled": "該問題已被取消。",
    "general.andMore": "... 還有 {{amnt}} 筆資料",
    "help.music.desc.enqueuePosition": "將 一首歌/一份播放清單 排到佇列內指定位置",
    "help.pro.desc.check": "顯示此伺服器是否有Ayana PRO，還有誰負責升級Ayana PRO",
    "help.rank.short": "從SAR分配階級",
    "help.role.desc.inrole": "我們只找出具有指定身分組的使用者，並且變更他的身分組",
    "help.role.desc.notinrole": "我們只找出不具有指定身分組的使用者，並且變更他的身分組",
    "help.role.desc.noroles": "我們只會找出不具有任何身分組的使用者，並且變更其身分組",
    "help.awoo.short": "犬走椛（東方角色）的 'awoo' 圖片",
    "help.bang.short": "對著某人射出某些東西",
    "help.idk.short": "「我不知道」（聳肩圖）",
    "help.insult.short": "隨機的污辱圖，你可以「欺負」你所提及的目標",
    "help.inu.short": "從 random.dog 得到一張隨機的狗狗圖片",
    "help.jojo.short": "《JoJo的奇妙冒險》哽圖",
    "help.kiss.short": "有關親親的圖片，你可以「親一下」你所提及的目標",
    "help.lick.short": "有關舔舔的圖片，你可以「舔一下」你提及的目標",
    "help.megumin.short": "動畫《為美好的世界獻上祝福！》中惠惠（めぐみん）的GIF哽圖",
    "help.neko.short": "從 random.cat 得到一張隨機的貓咪圖片",
    "help.nom.short": "隨機的 嚼嚼/吃吃 圖片",
    "help.nyan.short": "有關貓娘的圖片",
    "help.owo.short": "「OwO, 這是什麼？」哽圖",
    "help.poke.short": "戳戳圖片，你可以「戳一下」你提及的目標",
    "help.slap.short": "賞巴掌圖片，你可以對你提及的目標「賞個巴掌」",
    "help.sleepy.short": "一張角色在睡覺的圖片",
    "help.smile.short": "一張角色在微笑的圖片",
    "help.spongebob.short": "海綿寶寶嘲笑的哽圖，嘲笑的點由你自行輸入",
    "help.stare.short": "一張角色注視你的圖片，你可以讓他「注視著」你提及的目標",
    "help.teehee.short": "傻笑的反應圖片",
    "help.thumbsup.short": "讚好圖片",
    "help.triggered.short": "你被打開某種開關的哽圖，你可以說你被你提及的人「打開了某種開關」",
    "help.wag.short": "一個正在擺動尾巴的角色",
    "help.pat.short": "摸頭圖片，你可以對你提及的目標「摸摸頭」",
    "help.pout.short": "角色撅嘴的圖片",
    "help.smug.short": "角色躊躇的圖片",
    "help.waa.short": "當你覺得很難過的時候，你可以貼一張角色哭泣的圖片",
    "afk.mentionMessage": "使用者 {{user}} 目前在掛機。",
    "afk.noLongerAfk": "你終於從掛機狀態回來了。",
    "afk.afkSince": "開始掛機",
    "afk.nowAfk": "你目前正在掛機。如果此伺服器允許掛機訊息的話，在你掛機期間，一些人會在提及你後收到以下你所留的掛機訊息：",
    "afk.messageTooLarge": "你的掛機訊息不能超過1024個字。",
    "aliases.noAliasDefined": "你必須定義一個別名： `--addalias <alias>` 。",
    "aliases.alreadyAyanaCmd": "你正在嘗試的別名已經被Ayanoa使用了。",
    "aliases.alreadyExists": "別稱 `{{alias}}` 已經存在。",
    "aliases.aliasAdded": "別名 `{{alias}}` 已經被加到 `{{cmd}}` 裡了。",
    "aliases.notAlphanumeric": "別名必須為英文數字組成。但你輸入的是 `{{input}}` 。",
    "aliases.addHelp": "要添加別名，請像平常一樣使用你的命令，只是這次你要在後面添加 `--addalias <alias>` 。",
    "aliases.notExistent": "別名 `{{alias}}` 不存在。",
    "aliases.removed": "別名 `{{alias}}` 已被刪除。",
    "aliases.renamed": "別名 `{{alias}}` 已被重新命名為 `{{new}}` 。",
    "aliases.cannotAddAliasToAlias": "你不能對一個別名上添加別名。",
    "aliases.cannotHaveMore": "你不能擁有超過 {{amnt}} 個以上的別名。",
    "aliases.updatedAlias": "將別稱 `{{alias}}` 的 `{{key}}` 更改成 `{{value}}` 。",
    "aliases.setting.userargs": "允許或拒絕使用者在執行中的命令別稱上添加參數、選項或是標誌",
    "aliases.userargs": "使用者參數",
    "finder.headerUser": "請選擇一位你想要使用的使用者",
    "finder.headerChannel": "請選擇一個你想要使用的頻道",
    "finder.skippingUser": "跳過使用者 `{{search}}`",
    "fortune.invalidCategory": "無效的分類！有效的分類是 `{{categories}}` 。",
    "invite.text": "當然沒問題 :ok_hand:\n\n如果想要邀請我到你們的伺服器，請選擇以下其中一個連結：\n\n可管理版本（建議）： {{invite}}\n簡易版本（不建議）： {{invitemin}}",
    "invite.alpha": "當然沒問題：ok_hand：\n\n如果想要邀請我到你們伺服器，請點擊以下連結：\n\n{{invite}}\n\n請注意：不要讓Ayana Alpha在你伺服器上擁有太多權限。因為她真的很不穩定，我們無法對她在你們伺服器上做出的損害負責。",
    "flipcoin.heads": "正面！",
    "flipcoin.tails": "反面！",
    "locale.percent": "[{{num}}%]",
    "locale.userUpdate": "您的語系已被設定為 `{{locale}}` 。",
    "locale.guildUpdate": "伺服器的語系已被設定為 `{{locale}}` 。",
    "modlog.genFail": "管理紀錄錯誤。",
    "modlog.addFail": "在嘗試添加新的管理紀錄項目時出現錯誤。",
    "modlog.created": "已建立新的管理項目。",
    "modlog.updated": "已更新這項管理紀錄。",
    "modlog.updateFail": "在嘗試更新這項紀錄的詳細資訊時發生錯誤。",
    "modlog.hackAdd": "看起來 `{{input}}` 是一個使用者ID。要繼續嗎[y/n]？",
    "perms.denied": "你缺少了 `{{node}}` 的權限。",
    "perms.cmdDenied": "權限拒絕。你必須是伺服器的擁有者或是具有管理員權限的使用者才能改變權限。",
    "perms.resetall.owner": "此命令只限於伺服器擁有者才能使用。",
    "perms.resetall.reset": "已重設權限。",
    "perms.resetall.error": "在嘗試重設權限時發生錯誤。",
    "perms.failedUpdate": "在嘗試更新權限時發生錯誤。如果錯誤仍繼續發生的話請聯繫支援者。",
    "perms.invalidNode": "無效的權限項目。執行 `perms nodes` 來查看有效的權限項目清單。",
    "perms.showGuild": "顯示此伺服器的權限",
    "perms.showChannel": "顯示在頻道 `{{name}}` 的權限",
    "perms.showChannelUser": "顯示使用者 `{{uname}}` 在頻道 `{{cname}}` 上的權限",
    "perms.permNode": "權限項目",
    "sar.action.roles": "此群組的身分組可以被分配或是被取消分配。",
    "settings.variable.discriminator": "使用者名稱。",
    "settings.user.dmerrors": "啟用/停用 dmerrors。",
    "info.moreInfo": "*Ayana建立者，你可以使用 {{prefix}}shardinfo 來查看每個小型Ayana的詳細狀態資訊",
    "shardinfo.fail": "嘗試從閘道獲取分片伺服器的資訊時發生錯誤。",
    "shardinfo.currentShard": "這個碎片",
    "general.invalidEmbed": "我無法發送我想要的嵌入式訊息。驗證器印出了以下的錯誤。如果你需要更多幫助，請回報到我們的支援伺服器（使用 `support` 命令來獲得邀請）。\n```{{error}}```",
    "general.pagination.cooldown": "哇！你輸入速度太快了 - 目前的分頁正在冷卻中。",
    "help.pro.desc.status": "顯示你運行的Ayana PRO訂閱以及升級次數",
    "help.sar.desc.note": "    要使用分配界面的話，你必須輸入 {{prefix}}rank [group]",
    "help.cuddle.short": "有關依偎的圖片，也可以讓你把頭靠在別人身上",
    "help.dance.short": "角色跳舞的圖片",
    "help.waifuinsult.short": "「你的動漫老婆是個垃圾」哽圖",
    "help.wasted.short": "終結哽圖",
    "music3.searchNoResults": "沒有找到你要求的結果。請嘗試其他關鍵字。",
    "pro.manualSubscriptionRunningOut": "你的 Ayana PRO 訂閱 (ID: {{id}}) 將於72小時內過期 ({{expires}})。\n在過期後，任何使用此 Ayana PRO 訂閱的伺服器將會被自動降級成Ayana。\n你可以透過 `pro status` 命令來確認你的訂閱狀況、升級次數以及已升級的伺服器列表。\n\n想要繼續訂閱Ayana PRO或是贊助Ayana，請考慮訂閱我們: {{url}}",
    "pro.pledgeDeclinedNotify": "目前您這個月的Patreon訂閱請求遭到婉拒。\n請到Patreon確認並驗證你的付款方式是否仍然有效。\n如果在你更改付款承諾後仍然出現此訊息，請在Ayana Support Patreons頻道(英文)讓我們知道。\n\n如果你的付款承諾拒絕5次以上(含)，你對我們的訂閱就會失效，而且Ayana PRO將會自動離開。",
    "music3.nothingPlaying": "目前沒有正在播放的音樂",
    "help.music.desc.nowplaying": "顯示正在播放的歌曲",
    "aliases.notValid": "你的縮寫不應該包含以下字元：`\", -, \\`."
}
